EESchema Schematic File Version 4
EELAYER 30 0
EELAYER END
$Descr A4 11693 8268
encoding utf-8
Sheet 1 1
Title "uDAC-cs43198"
Date "2018-06-01"
Rev "0.5"
Comp "Copyright Lukas Otava 2021"
Comment1 "CERN Open Hardware Licence Version 2 - Weakly Reciprocal (see LICENSE.txt)"
Comment2 "This hardware design is licenced under "
Comment3 ""
Comment4 ""
$EndDescr
$Comp
L moje_audio1:CS43131 U9
U 1 1 5A8A1083
P 8550 2900
F 0 "U9" H 8550 3100 60  0000 C CNN
F 1 "CS43131" H 8550 2700 60  0000 C CNN
F 2 "hw_design:QFN-40-1EP_5x5mm_Pitch0.4mm_Cirrus" H 8550 2900 60  0001 C CNN
F 3 "" H 8550 2900 60  0001 C CNN
	1    8550 2900
	0    -1   -1   0   
$EndComp
$Comp
L Device:C C33
U 1 1 5A8A131C
P 9750 3850
F 0 "C33" H 9775 3950 50  0000 L CNN
F 1 "2.2u" H 9775 3750 50  0000 L CNN
F 2 "hw_design:C_0603" H 9788 3700 50  0001 C CNN
F 3 "" H 9750 3850 50  0001 C CNN
	1    9750 3850
	1    0    0    -1  
$EndComp
$Comp
L Device:C C26
U 1 1 5A8A13D7
P 8500 900
F 0 "C26" H 8525 1000 50  0000 L CNN
F 1 "100n" H 8525 800 50  0000 L CNN
F 2 "hw_design:C_0603" H 8538 750 50  0001 C CNN
F 3 "" H 8500 900 50  0001 C CNN
	1    8500 900 
	1    0    0    -1  
$EndComp
$Comp
L power:GND #PWR01
U 1 1 5A8A1423
P 8800 4900
F 0 "#PWR01" H 8800 4650 50  0001 C CNN
F 1 "GND" H 8800 4750 50  0000 C CNN
F 2 "" H 8800 4900 50  0001 C CNN
F 3 "" H 8800 4900 50  0001 C CNN
	1    8800 4900
	1    0    0    -1  
$EndComp
$Comp
L Device:C C22
U 1 1 5A8A14A4
P 7600 4500
F 0 "C22" H 7625 4600 50  0000 L CNN
F 1 "100n" H 7625 4400 50  0000 L CNN
F 2 "hw_design:C_0603" H 7638 4350 50  0001 C CNN
F 3 "" H 7600 4500 50  0001 C CNN
	1    7600 4500
	-1   0    0    -1  
$EndComp
$Comp
L power:GND #PWR02
U 1 1 5A8A156A
P 7600 4700
F 0 "#PWR02" H 7600 4450 50  0001 C CNN
F 1 "GND" H 7600 4550 50  0000 C CNN
F 2 "" H 7600 4700 50  0001 C CNN
F 3 "" H 7600 4700 50  0001 C CNN
	1    7600 4700
	1    0    0    -1  
$EndComp
Connection ~ 8500 1150
$Comp
L Device:C C19
U 1 1 5A8A164C
P 7100 2450
F 0 "C19" H 7125 2550 50  0000 L CNN
F 1 "100n" H 7125 2350 50  0000 L CNN
F 2 "hw_design:C_0603" H 7138 2300 50  0001 C CNN
F 3 "" H 7100 2450 50  0001 C CNN
	1    7100 2450
	0    1    1    0   
$EndComp
$Comp
L power:GND #PWR03
U 1 1 5A8A16F8
P 6850 2450
F 0 "#PWR03" H 6850 2200 50  0001 C CNN
F 1 "GND" H 6850 2300 50  0000 C CNN
F 2 "" H 6850 2450 50  0001 C CNN
F 3 "" H 6850 2450 50  0001 C CNN
	1    6850 2450
	0    1    1    0   
$EndComp
Wire Wire Line
	6850 2450 6950 2450
$Comp
L power:GND #PWR04
U 1 1 5A8A1736
P 8400 650
F 0 "#PWR04" H 8400 400 50  0001 C CNN
F 1 "GND" H 8400 500 50  0000 C CNN
F 2 "" H 8400 650 50  0001 C CNN
F 3 "" H 8400 650 50  0001 C CNN
	1    8400 650 
	0    1    1    0   
$EndComp
Wire Wire Line
	8800 4000 8800 4900
Wire Wire Line
	9650 2550 9850 2550
$Comp
L power:GND #PWR05
U 1 1 5A8A187D
P 7350 3550
F 0 "#PWR05" H 7350 3300 50  0001 C CNN
F 1 "GND" H 7350 3400 50  0000 C CNN
F 2 "" H 7350 3550 50  0001 C CNN
F 3 "" H 7350 3550 50  0001 C CNN
	1    7350 3550
	1    0    0    -1  
$EndComp
Wire Wire Line
	7450 2850 7350 2850
Wire Wire Line
	7350 2550 7350 2850
Wire Wire Line
	7350 3350 7450 3350
Wire Wire Line
	7450 2550 7350 2550
Connection ~ 7350 2850
$Comp
L power:GND #PWR06
U 1 1 5A8A1949
P 8000 1700
F 0 "#PWR06" H 8000 1450 50  0001 C CNN
F 1 "GND" H 8000 1550 50  0000 C CNN
F 2 "" H 8000 1700 50  0001 C CNN
F 3 "" H 8000 1700 50  0001 C CNN
	1    8000 1700
	0    1    1    0   
$EndComp
Wire Wire Line
	8000 1700 8100 1700
Wire Wire Line
	8100 1700 8100 1800
Wire Wire Line
	8200 1700 8200 1800
Connection ~ 8100 1700
Wire Wire Line
	7350 2250 7350 2450
Connection ~ 7350 2450
Text GLabel 6850 3350 0    60   BiDi ~ 0
SDA
Text GLabel 6850 3500 0    60   Input ~ 0
SCL
Text GLabel 6850 2950 0    60   Input ~ 0
MCLK
Text GLabel 5350 3150 0    60   Output ~ 0
LRCK
Text GLabel 6850 2750 0    60   Output ~ 0
SCK
$Comp
L Device:R R11
U 1 1 5A8A1C2A
P 7100 2750
F 0 "R11" V 7180 2750 50  0000 C CNN
F 1 "27" V 7100 2750 50  0000 C CNN
F 2 "hw_design:R_0603" V 7030 2750 50  0001 C CNN
F 3 "" H 7100 2750 50  0001 C CNN
	1    7100 2750
	0    1    1    0   
$EndComp
Wire Wire Line
	7250 2750 7450 2750
Wire Wire Line
	6950 2750 6850 2750
$Comp
L Device:R R12
U 1 1 5A8A1CF7
P 5600 3150
F 0 "R12" V 5680 3150 50  0000 C CNN
F 1 "27" V 5600 3150 50  0000 C CNN
F 2 "hw_design:R_0603" V 5530 3150 50  0001 C CNN
F 3 "" H 5600 3150 50  0001 C CNN
	1    5600 3150
	0    1    1    0   
$EndComp
Wire Wire Line
	5450 3150 5350 3150
Wire Wire Line
	6300 3150 7450 3150
Text GLabel 7050 1550 0    60   Input ~ 0
RST
Wire Wire Line
	8300 1550 8300 1800
Wire Wire Line
	7350 3450 7450 3450
Connection ~ 7350 3350
$Comp
L devices21:STM32F048G6 U3
U 1 1 5A8A2CD8
P 2850 2200
F 0 "U3" H 2850 2450 60  0000 C CNN
F 1 "STM32F048G6" H 2850 2000 60  0000 C CNN
F 2 "hw_design:UFQFPN28" H 2850 2200 60  0001 C CNN
F 3 "" H 2850 2200 60  0001 C CNN
	1    2850 2200
	1    0    0    -1  
$EndComp
$Comp
L devices21:ADP151 U1
U 1 1 5AC19A26
P 2600 6650
F 0 "U1" H 2600 6900 60  0000 C CNN
F 1 "ADP151-3.3" H 2600 6400 60  0000 C CNN
F 2 "hw_design:SOT-23-5" H 2600 6650 60  0001 C CNN
F 3 "" H 2600 6650 60  0000 C CNN
	1    2600 6650
	1    0    0    -1  
$EndComp
$Comp
L power:GND #PWR07
U 1 1 5AC19A28
P 1900 6800
F 0 "#PWR07" H 1900 6550 50  0001 C CNN
F 1 "GND" H 1900 6650 50  0000 C CNN
F 2 "" H 1900 6800 50  0000 C CNN
F 3 "" H 1900 6800 50  0000 C CNN
	1    1900 6800
	1    0    0    -1  
$EndComp
$Comp
L Device:C C8
U 1 1 5AC19A2D
P 3400 6500
F 0 "C8" H 3425 6600 50  0000 L CNN
F 1 "2.2u" V 3250 6650 50  0000 L CNN
F 2 "hw_design:C_0603" H 3438 6350 50  0001 C CNN
F 3 "" H 3400 6500 50  0000 C CNN
	1    3400 6500
	0    1    1    0   
$EndComp
$Comp
L power:GND #PWR08
U 1 1 5AC19A2E
P 3650 6600
F 0 "#PWR08" H 3650 6350 50  0001 C CNN
F 1 "GND" H 3650 6450 50  0000 C CNN
F 2 "" H 3650 6600 50  0000 C CNN
F 3 "" H 3650 6600 50  0000 C CNN
	1    3650 6600
	1    0    0    -1  
$EndComp
$Comp
L power:+3V3 #PWR09
U 1 1 5AC19A2F
P 3150 6400
F 0 "#PWR09" H 3150 6250 50  0001 C CNN
F 1 "+3V3" H 3150 6540 50  0000 C CNN
F 2 "" H 3150 6400 50  0000 C CNN
F 3 "" H 3150 6400 50  0000 C CNN
	1    3150 6400
	1    0    0    -1  
$EndComp
$Comp
L power:GND #PWR010
U 1 1 5AC19A31
P 1850 4600
F 0 "#PWR010" H 1850 4350 50  0001 C CNN
F 1 "GND" H 1850 4450 50  0000 C CNN
F 2 "" H 1850 4600 50  0000 C CNN
F 3 "" H 1850 4600 50  0000 C CNN
	1    1850 4600
	-1   0    0    -1  
$EndComp
$Comp
L Device:C C2
U 1 1 5AC19A32
P 1100 5650
F 0 "C2" V 1150 5450 50  0000 L CNN
F 1 "4n7" V 1150 5750 50  0000 L CNN
F 2 "hw_design:C_0603" H 1138 5500 50  0001 C CNN
F 3 "" H 1100 5650 50  0000 C CNN
	1    1100 5650
	0    -1   1    0   
$EndComp
$Comp
L power:GND #PWR011
U 1 1 5AC19A33
P 1350 5750
F 0 "#PWR011" H 1350 5500 50  0001 C CNN
F 1 "GND" H 1350 5600 50  0000 C CNN
F 2 "" H 1350 5750 50  0000 C CNN
F 3 "" H 1350 5750 50  0000 C CNN
	1    1350 5750
	-1   0    0    -1  
$EndComp
Wire Wire Line
	850  5650 950  5650
Wire Wire Line
	1250 4950 2250 4950
Wire Wire Line
	1250 4850 1450 4850
$Comp
L power:+5V #PWR012
U 1 1 5AC19A34
P 1250 4500
F 0 "#PWR012" H 1250 4350 50  0001 C CNN
F 1 "+5V" H 1250 4640 50  0000 C CNN
F 2 "" H 1250 4500 50  0000 C CNN
F 3 "" H 1250 4500 50  0000 C CNN
	1    1250 4500
	-1   0    0    -1  
$EndComp
$Comp
L Device:C C12
U 1 1 5AC19A35
P 4500 5900
F 0 "C12" H 4525 6000 50  0000 L CNN
F 1 "10p" H 4550 5800 50  0000 L CNN
F 2 "hw_design:C_0603" H 4538 5750 50  0001 C CNN
F 3 "" H 4500 5900 50  0000 C CNN
	1    4500 5900
	1    0    0    -1  
$EndComp
Wire Wire Line
	5100 6050 5100 6150
Wire Wire Line
	4500 6050 4500 6150
Wire Wire Line
	2050 6800 2150 6800
Wire Wire Line
	3250 6500 3150 6500
Wire Wire Line
	3150 6500 3150 6400
Connection ~ 3150 6500
Wire Wire Line
	3550 6500 3650 6500
Wire Wire Line
	2150 6650 1900 6650
Wire Wire Line
	1900 6650 1900 6800
$Comp
L Device:R R1
U 1 1 5AC19A3C
P 1100 5450
F 0 "R1" V 1180 5450 50  0000 C CNN
F 1 "1M" V 1100 5450 50  0000 C CNN
F 2 "hw_design:R_0603" V 1030 5450 50  0001 C CNN
F 3 "" H 1100 5450 50  0000 C CNN
	1    1100 5450
	0    -1   1    0   
$EndComp
Wire Wire Line
	950  5450 850  5450
Connection ~ 850  5450
Wire Wire Line
	1750 4500 1850 4500
Wire Wire Line
	1850 4500 1850 4600
Wire Wire Line
	1450 4500 1350 4500
Connection ~ 1350 4500
$Comp
L devices21:NC7SZU04P5 U4
U 1 1 5AC19A43
P 4750 4850
F 0 "U4" H 4945 4965 50  0000 C CNN
F 1 "NC7SZU04P5" H 5100 5050 50  0000 C CNN
F 2 "hw_design:SC-70-5" H 4750 4750 50  0001 C CNN
F 3 "" H 4750 4750 50  0000 C CNN
	1    4750 4850
	-1   0    0    -1  
$EndComp
Connection ~ 5100 4850
$Comp
L Device:C C14
U 1 1 5AC19A44
P 4800 4300
F 0 "C14" H 4825 4400 50  0000 L CNN
F 1 "100n" H 4850 4200 50  0000 L CNN
F 2 "hw_design:C_0603" H 4838 4150 50  0001 C CNN
F 3 "" H 4800 4300 50  0000 C CNN
	1    4800 4300
	1    0    0    -1  
$EndComp
$Comp
L Device:R R7
U 1 1 5AC19A46
P 4800 5350
F 0 "R7" V 4850 5500 50  0000 C CNN
F 1 "1M" V 4800 5350 50  0000 C CNN
F 2 "hw_design:R_0603" V 4730 5350 50  0001 C CNN
F 3 "" H 4800 5350 50  0000 C CNN
	1    4800 5350
	0    1    1    0   
$EndComp
Connection ~ 4500 5350
Connection ~ 5100 5350
$Comp
L devices21:ADP151 U10
U 1 1 5AC19A47
P 9950 5450
F 0 "U10" H 9950 5700 60  0000 C CNN
F 1 "ADP151-1.8" H 9950 5200 60  0000 C CNN
F 2 "hw_design:SOT-23-5" H 9950 5450 60  0001 C CNN
F 3 "" H 9950 5450 60  0000 C CNN
	1    9950 5450
	1    0    0    -1  
$EndComp
$Comp
L Device:C C28
U 1 1 5AC19A48
P 9050 6150
F 0 "C28" V 9100 6200 50  0000 L CNN
F 1 "22u" V 9000 5950 50  0000 L CNN
F 2 "hw_design:C_0603" H 9088 6000 50  0001 C CNN
F 3 "" H 9050 6150 50  0000 C CNN
	1    9050 6150
	-1   0    0    1   
$EndComp
$Comp
L Device:C C36
U 1 1 5AC19A49
P 10750 5300
F 0 "C36" V 10700 5100 50  0000 L CNN
F 1 "2.2u" V 10700 5350 50  0000 L CNN
F 2 "hw_design:C_0603" H 10788 5150 50  0001 C CNN
F 3 "" H 10750 5300 50  0000 C CNN
	1    10750 5300
	0    1    1    0   
$EndComp
Wire Wire Line
	9400 6250 9500 6250
Connection ~ 9400 5950
Wire Wire Line
	10600 5300 10500 5300
Connection ~ 10500 5300
Wire Wire Line
	10900 5300 11000 5300
Wire Wire Line
	9500 6100 9250 6100
Text Label 10600 5150 0    60   ~ 0
+1V8OSC
Wire Wire Line
	10600 5150 10500 5150
Wire Wire Line
	10500 5150 10500 5300
Wire Wire Line
	5100 4850 5100 5350
Wire Wire Line
	4800 4050 4800 4100
$Comp
L Device:C C16
U 1 1 5AC19A4C
P 5100 5900
F 0 "C16" H 4900 6000 50  0000 L CNN
F 1 "10p" H 4900 5800 50  0000 L CNN
F 2 "hw_design:C_0603" H 5138 5750 50  0001 C CNN
F 3 "" H 5100 5900 50  0000 C CNN
	1    5100 5900
	-1   0    0    1   
$EndComp
Wire Wire Line
	4500 5350 4500 5700
Wire Wire Line
	4950 5350 5100 5350
Wire Wire Line
	1250 5650 1350 5650
Text GLabel 2350 4950 2    60   BiDi ~ 0
DM
Text GLabel 2350 4850 2    60   BiDi ~ 0
DP
$Comp
L Device:D_TVS_x2_AAC D1
U 1 1 5AC19A52
P 1850 5200
F 0 "D1" H 1850 5375 50  0000 C CNN
F 1 "TPD2E2U06-Q1" H 1850 5300 50  0000 C CNN
F 2 "hw_design:SOT-23" H 1700 5200 50  0001 C CNN
F 3 "" H 1700 5200 50  0001 C CNN
	1    1850 5200
	1    0    0    -1  
$EndComp
Wire Wire Line
	2250 4950 2250 5200
Wire Wire Line
	2250 5200 2200 5200
Connection ~ 2250 4950
Wire Wire Line
	1500 5200 1450 5200
Wire Wire Line
	1350 5450 1250 5450
Connection ~ 1350 5650
Connection ~ 1350 5450
$Comp
L power:GND #PWR013
U 1 1 5AC19A53
P 1850 5450
F 0 "#PWR013" H 1850 5200 50  0001 C CNN
F 1 "GND" H 1850 5300 50  0000 C CNN
F 2 "" H 1850 5450 50  0000 C CNN
F 3 "" H 1850 5450 50  0000 C CNN
	1    1850 5450
	-1   0    0    -1  
$EndComp
Wire Wire Line
	1850 5450 1850 5350
Wire Wire Line
	1450 5200 1450 4850
Connection ~ 1450 4850
Wire Wire Line
	4400 5350 4500 5350
Wire Wire Line
	4500 4850 4400 4850
Wire Wire Line
	4400 4850 4400 5350
Wire Wire Line
	4800 4450 4800 4550
Wire Wire Line
	4800 5050 4800 5100
Wire Wire Line
	4800 4550 4850 4550
Connection ~ 4800 4550
$Comp
L Device:C C6
U 1 1 5AC1BB4B
P 1600 4500
F 0 "C6" H 1625 4600 50  0000 L CNN
F 1 "2.2u" H 1650 4400 50  0000 L CNN
F 2 "hw_design:C_0603" H 1638 4350 50  0001 C CNN
F 3 "" H 1600 4500 50  0000 C CNN
	1    1600 4500
	0    1    1    0   
$EndComp
Wire Wire Line
	850  5250 850  5450
Wire Wire Line
	950  5250 950  5300
Wire Wire Line
	950  5300 1350 5300
Wire Wire Line
	1350 5300 1350 5450
Wire Wire Line
	1350 4650 1250 4650
Text GLabel 2550 3300 3    60   Output ~ 0
TX
Text GLabel 2650 3300 3    60   BiDi ~ 0
RX
Wire Wire Line
	2650 3050 2650 3300
Text GLabel 3250 3700 2    60   Output ~ 0
DAC
Wire Wire Line
	2550 3050 2550 3300
$Comp
L Connector_Generic:Conn_01x03 P1
U 1 1 5AC1D99B
P 5650 1000
F 0 "P1" H 5650 1200 50  0000 C CNN
F 1 "UART" V 5750 1000 50  0000 C CNN
F 2 "hw_design:GS3" H 5650 1000 50  0001 C CNN
F 3 "" H 5650 1000 50  0000 C CNN
	1    5650 1000
	-1   0    0    1   
$EndComp
Text GLabel 6000 900  2    60   Input ~ 0
TX
Text GLabel 6000 1000 2    60   BiDi ~ 0
RX
$Comp
L power:GND #PWR014
U 1 1 5AC1D99C
P 5950 1200
F 0 "#PWR014" H 5950 950 50  0001 C CNN
F 1 "GND" H 5950 1050 50  0000 C CNN
F 2 "" H 5950 1200 50  0000 C CNN
F 3 "" H 5950 1200 50  0000 C CNN
	1    5950 1200
	1    0    0    -1  
$EndComp
Wire Wire Line
	5850 900  6000 900 
Wire Wire Line
	5850 1000 6000 1000
Wire Wire Line
	5850 1100 5950 1100
Wire Wire Line
	5950 1100 5950 1200
$Comp
L Device:R R9
U 1 1 5AC1D99D
P 5000 1100
F 0 "R9" V 5080 1100 50  0000 C CNN
F 1 "1k" V 5000 1100 50  0000 C CNN
F 2 "hw_design:R_0603" V 4930 1100 50  0001 C CNN
F 3 "" H 5000 1100 50  0000 C CNN
	1    5000 1100
	1    0    0    -1  
$EndComp
$Comp
L Device:LED D2
U 1 1 5AC1D99E
P 5000 1550
F 0 "D2" H 5000 1650 50  0000 C CNN
F 1 "LED" H 5000 1450 50  0000 C CNN
F 2 "hw_design:LED_0603" H 5000 1550 50  0001 C CNN
F 3 "" H 5000 1550 50  0000 C CNN
	1    5000 1550
	0    -1   -1   0   
$EndComp
$Comp
L power:GND #PWR015
U 1 1 5AC1D99F
P 5000 1850
F 0 "#PWR015" H 5000 1600 50  0001 C CNN
F 1 "GND" H 5000 1700 50  0000 C CNN
F 2 "" H 5000 1850 50  0000 C CNN
F 3 "" H 5000 1850 50  0000 C CNN
	1    5000 1850
	1    0    0    -1  
$EndComp
$Comp
L Device:C C1
U 1 1 5AC1D9A3
P 800 2650
F 0 "C1" H 825 2750 50  0000 L CNN
F 1 "10p" H 850 2550 50  0000 L CNN
F 2 "hw_design:C_0603" H 838 2500 50  0001 C CNN
F 3 "" H 800 2650 50  0000 C CNN
	1    800  2650
	-1   0    0    1   
$EndComp
$Comp
L Device:C C5
U 1 1 5AC1D9A4
P 1400 2650
F 0 "C5" H 1425 2750 50  0000 L CNN
F 1 "10p" H 1200 2750 50  0000 L CNN
F 2 "hw_design:C_0603" H 1438 2500 50  0001 C CNN
F 3 "" H 1400 2650 50  0000 C CNN
	1    1400 2650
	-1   0    0    1   
$EndComp
$Comp
L power:GND #PWR016
U 1 1 5AC1D9A5
P 1400 2900
F 0 "#PWR016" H 1400 2650 50  0001 C CNN
F 1 "GND" H 1400 2750 50  0000 C CNN
F 2 "" H 1400 2900 50  0000 C CNN
F 3 "" H 1400 2900 50  0000 C CNN
	1    1400 2900
	1    0    0    -1  
$EndComp
$Comp
L power:GND #PWR017
U 1 1 5AC1D9A6
P 800 2900
F 0 "#PWR017" H 800 2650 50  0001 C CNN
F 1 "GND" H 800 2750 50  0000 C CNN
F 2 "" H 800 2900 50  0000 C CNN
F 3 "" H 800 2900 50  0000 C CNN
	1    800  2900
	1    0    0    -1  
$EndComp
Wire Wire Line
	800  2000 800  2300
Wire Wire Line
	800  2300 950  2300
Connection ~ 800  2300
Wire Wire Line
	1400 2100 1400 2300
Wire Wire Line
	1250 2300 1400 2300
Connection ~ 1400 2300
Wire Wire Line
	1400 2800 1400 2900
Wire Wire Line
	800  2800 800  2900
Wire Wire Line
	5000 850  5000 950 
$Comp
L Device:R R2
U 1 1 5AC1D9B9
P 800 1450
F 0 "R2" V 880 1450 50  0000 C CNN
F 1 "1k" V 800 1450 50  0000 C CNN
F 2 "hw_design:R_0603" V 730 1450 50  0001 C CNN
F 3 "" H 800 1450 50  0000 C CNN
	1    800  1450
	-1   0    0    1   
$EndComp
$Comp
L power:GND #PWR018
U 1 1 5AC1DA05
P 2300 1300
F 0 "#PWR018" H 2300 1050 50  0001 C CNN
F 1 "GND" H 2300 1150 50  0000 C CNN
F 2 "" H 2300 1300 50  0000 C CNN
F 3 "" H 2300 1300 50  0000 C CNN
	1    2300 1300
	1    0    0    -1  
$EndComp
$Comp
L power:GND #PWR019
U 1 1 5AC1DA0C
P 1100 2550
F 0 "#PWR019" H 1100 2300 50  0001 C CNN
F 1 "GND" H 1100 2400 50  0000 C CNN
F 2 "" H 1100 2550 50  0000 C CNN
F 3 "" H 1100 2550 50  0000 C CNN
	1    1100 2550
	1    0    0    -1  
$EndComp
Wire Wire Line
	1100 2550 1100 2500
$Comp
L Device:Crystal_GND24 Q1
U 1 1 5AC1DA0F
P 1100 2300
F 0 "Q1" H 850 2200 50  0000 L CNN
F 1 "8MHz" H 850 2100 50  0000 L CNN
F 2 "hw_design:Crystal_SMD_EuroQuartz_MT-4pin_3.2x2.5mm" H 1100 2300 50  0001 C CNN
F 3 "" H 1100 2300 50  0001 C CNN
	1    1100 2300
	-1   0    0    1   
$EndComp
$Comp
L Device:Crystal_GND24 Q2
U 1 1 5AC1ED05
P 4800 5700
F 0 "Q2" H 5150 5900 50  0000 L CNN
F 1 "22.579MHz" H 5150 5800 50  0000 L CNN
F 2 "hw_design:Crystal_SMD_EuroQuartz_MJ-4pin_5.0x3.2mm" H 4800 5700 50  0001 C CNN
F 3 "" H 4800 5700 50  0001 C CNN
	1    4800 5700
	1    0    0    -1  
$EndComp
$Comp
L devices21:NC7SZU04P5 U6
U 1 1 5AC1F39B
P 5450 4850
F 0 "U6" H 5645 4965 50  0000 C CNN
F 1 "NC7SZ04P5" H 5800 5050 50  0000 C CNN
F 2 "hw_design:SC-70-5" H 5450 4750 50  0001 C CNN
F 3 "" H 5450 4750 50  0000 C CNN
	1    5450 4850
	1    0    0    -1  
$EndComp
$Comp
L Device:C C17
U 1 1 5AC1F9FC
P 5400 4300
F 0 "C17" H 5425 4400 50  0000 L CNN
F 1 "100n" H 5450 4200 50  0000 L CNN
F 2 "hw_design:C_0603" H 5438 4150 50  0001 C CNN
F 3 "" H 5400 4300 50  0000 C CNN
	1    5400 4300
	1    0    0    -1  
$EndComp
Wire Wire Line
	5400 4150 5400 4100
Wire Wire Line
	5400 4100 4800 4100
Connection ~ 4800 4100
Wire Wire Line
	5400 4450 5400 4550
Wire Wire Line
	5000 4850 5100 4850
Wire Wire Line
	5400 5050 5400 5100
Wire Wire Line
	2950 3050 2950 3300
Text GLabel 7800 4150 0    60   Input ~ 0
DAC
Wire Wire Line
	8100 4050 8100 4000
Wire Wire Line
	6850 4050 6950 4050
Wire Wire Line
	8200 4150 8200 4000
Wire Wire Line
	7800 4150 7950 4150
Wire Wire Line
	7400 1550 8300 1550
Wire Wire Line
	7450 3250 7200 3250
Wire Wire Line
	7200 3250 7200 3350
Wire Wire Line
	7200 3350 7050 3350
Connection ~ 7350 3450
Wire Wire Line
	7450 2450 7350 2450
Text GLabel 3200 3800 2    60   Input ~ 0
SCK
Text GLabel 6200 4850 2    60   Input ~ 0
MCLK
$Comp
L Device:R R10
U 1 1 5AC269DF
P 5950 4850
F 0 "R10" V 6030 4850 50  0000 C CNN
F 1 "27" V 5950 4850 50  0000 C CNN
F 2 "hw_design:R_0603" V 5880 4850 50  0001 C CNN
F 3 "" H 5950 4850 50  0000 C CNN
	1    5950 4850
	0    1    1    0   
$EndComp
Wire Wire Line
	5700 4850 5800 4850
Wire Wire Line
	6100 4850 6200 4850
Wire Wire Line
	4650 5700 4500 5700
Connection ~ 4500 5700
Wire Wire Line
	5100 5700 4950 5700
Connection ~ 5100 5700
Wire Wire Line
	4800 5900 4800 6150
$Comp
L power:GND #PWR020
U 1 1 5AC28DCC
P 3800 2600
F 0 "#PWR020" H 3800 2350 50  0001 C CNN
F 1 "GND" H 3800 2450 50  0000 C CNN
F 2 "" H 3800 2600 50  0001 C CNN
F 3 "" H 3800 2600 50  0001 C CNN
	1    3800 2600
	1    0    0    -1  
$EndComp
$Comp
L power:+1V8 #PWR021
U 1 1 5AC2A2D5
P 3800 800
F 0 "#PWR021" H 3800 650 50  0001 C CNN
F 1 "+1V8" H 3800 940 50  0000 C CNN
F 2 "" H 3800 800 50  0001 C CNN
F 3 "" H 3800 800 50  0001 C CNN
	1    3800 800 
	1    0    0    -1  
$EndComp
Wire Wire Line
	5450 4550 5400 4550
Connection ~ 5400 4550
Text GLabel 4100 2100 2    60   BiDi ~ 0
DM
Text GLabel 4100 2000 2    60   BiDi ~ 0
DP
Wire Wire Line
	3700 2100 4100 2100
Wire Wire Line
	4100 2000 3700 2000
Wire Wire Line
	3700 2400 3800 2400
Wire Wire Line
	3800 2400 3800 2600
Text GLabel 4100 1900 2    60   BiDi ~ 0
SWDIO
Wire Wire Line
	4100 1900 3700 1900
Text GLabel 3250 1250 2    60   Input ~ 0
SWCLK
Wire Wire Line
	3150 1350 3150 1250
Wire Wire Line
	3150 1250 3250 1250
Text GLabel 3200 3900 2    60   Input ~ 0
LRCK
$Comp
L Device:R R5
U 1 1 5AC2CD3F
P 2950 3450
F 0 "R5" V 2850 3450 50  0000 C CNN
F 1 "27" V 2950 3450 50  0000 C CNN
F 2 "hw_design:R_0603" V 2880 3450 50  0001 C CNN
F 3 "" H 2950 3450 50  0001 C CNN
	1    2950 3450
	-1   0    0    1   
$EndComp
Wire Wire Line
	2950 3600 2950 3700
$Comp
L devices21:ADP151 U2
U 1 1 5AC2DFAE
P 2600 7250
F 0 "U2" H 2600 7500 60  0000 C CNN
F 1 "ADP151-1.8" H 2600 7000 60  0000 C CNN
F 2 "hw_design:SOT-23-5" H 2600 7250 60  0001 C CNN
F 3 "" H 2600 7250 60  0000 C CNN
	1    2600 7250
	1    0    0    -1  
$EndComp
$Comp
L power:GND #PWR022
U 1 1 5AC2DFB4
P 1900 7400
F 0 "#PWR022" H 1900 7150 50  0001 C CNN
F 1 "GND" H 1900 7250 50  0000 C CNN
F 2 "" H 1900 7400 50  0000 C CNN
F 3 "" H 1900 7400 50  0000 C CNN
	1    1900 7400
	1    0    0    -1  
$EndComp
$Comp
L Device:C C9
U 1 1 5AC2DFBA
P 3400 7100
F 0 "C9" H 3425 7200 50  0000 L CNN
F 1 "2.2u" V 3250 7250 50  0000 L CNN
F 2 "hw_design:C_0603" H 3438 6950 50  0001 C CNN
F 3 "" H 3400 7100 50  0000 C CNN
	1    3400 7100
	0    1    1    0   
$EndComp
$Comp
L power:GND #PWR023
U 1 1 5AC2DFC0
P 3650 7200
F 0 "#PWR023" H 3650 6950 50  0001 C CNN
F 1 "GND" H 3650 7050 50  0000 C CNN
F 2 "" H 3650 7200 50  0000 C CNN
F 3 "" H 3650 7200 50  0000 C CNN
	1    3650 7200
	1    0    0    -1  
$EndComp
Wire Wire Line
	2050 7400 2150 7400
Connection ~ 2050 7100
Wire Wire Line
	3250 7100 3150 7100
Wire Wire Line
	3150 7100 3150 7000
Connection ~ 3150 7100
Wire Wire Line
	3550 7100 3650 7100
Wire Wire Line
	2150 7250 1900 7250
Wire Wire Line
	1900 7250 1900 7400
$Comp
L power:+1V8 #PWR024
U 1 1 5AC2E2CD
P 3150 7000
F 0 "#PWR024" H 3150 6850 50  0001 C CNN
F 1 "+1V8" H 3150 7140 50  0000 C CNN
F 2 "" H 3150 7000 50  0001 C CNN
F 3 "" H 3150 7000 50  0001 C CNN
	1    3150 7000
	1    0    0    -1  
$EndComp
$Comp
L Device:C C10
U 1 1 5AC2E918
P 4050 1050
F 0 "C10" H 4075 1150 50  0000 L CNN
F 1 "100n" H 4075 950 50  0000 L CNN
F 2 "hw_design:C_0603" H 4088 900 50  0001 C CNN
F 3 "" H 4050 1050 50  0001 C CNN
	1    4050 1050
	0    -1   -1   0   
$EndComp
$Comp
L power:GND #PWR025
U 1 1 5AC2EA80
P 4300 1100
F 0 "#PWR025" H 4300 850 50  0001 C CNN
F 1 "GND" H 4300 950 50  0000 C CNN
F 2 "" H 4300 1100 50  0001 C CNN
F 3 "" H 4300 1100 50  0001 C CNN
	1    4300 1100
	1    0    0    -1  
$EndComp
Wire Wire Line
	4300 1050 4300 1100
$Comp
L Device:C C11
U 1 1 5AC2ED79
P 4300 1600
F 0 "C11" H 4325 1700 50  0000 L CNN
F 1 "100n" H 4325 1500 50  0000 L CNN
F 2 "hw_design:C_0603" H 4338 1450 50  0001 C CNN
F 3 "" H 4300 1600 50  0001 C CNN
	1    4300 1600
	0    -1   -1   0   
$EndComp
Wire Wire Line
	4150 1600 4000 1600
Wire Wire Line
	4000 1550 4000 1600
Wire Wire Line
	4000 2200 3700 2200
$Comp
L power:GND #PWR026
U 1 1 5AC2F1FE
P 4550 1700
F 0 "#PWR026" H 4550 1450 50  0001 C CNN
F 1 "GND" H 4550 1550 50  0000 C CNN
F 2 "" H 4550 1700 50  0001 C CNN
F 3 "" H 4550 1700 50  0001 C CNN
	1    4550 1700
	1    0    0    -1  
$EndComp
Wire Wire Line
	4450 1600 4550 1600
Wire Wire Line
	4550 1600 4550 1700
Wire Wire Line
	2000 2000 800  2000
Wire Wire Line
	2000 2100 1400 2100
$Comp
L Device:C C4
U 1 1 5AC30BA9
P 1650 2650
F 0 "C4" H 1675 2750 50  0000 L CNN
F 1 "100n" H 1450 2550 50  0000 L CNN
F 2 "hw_design:C_0603" H 1688 2500 50  0001 C CNN
F 3 "" H 1650 2650 50  0001 C CNN
	1    1650 2650
	-1   0    0    -1  
$EndComp
$Comp
L power:GND #PWR027
U 1 1 5AC30D75
P 1650 2900
F 0 "#PWR027" H 1650 2650 50  0001 C CNN
F 1 "GND" H 1650 2750 50  0000 C CNN
F 2 "" H 1650 2900 50  0000 C CNN
F 3 "" H 1650 2900 50  0000 C CNN
	1    1650 2900
	1    0    0    -1  
$EndComp
Wire Wire Line
	2000 2300 1650 2300
Wire Wire Line
	3800 800  3800 1050
$Comp
L power:+3V3 #PWR028
U 1 1 5AC317F9
P 1650 1900
F 0 "#PWR028" H 1650 1750 50  0001 C CNN
F 1 "+3V3" H 1650 2040 50  0000 C CNN
F 2 "" H 1650 1900 50  0000 C CNN
F 3 "" H 1650 1900 50  0000 C CNN
	1    1650 1900
	1    0    0    -1  
$EndComp
$Comp
L power:+3V3 #PWR029
U 1 1 5AC31C0B
P 4000 1550
F 0 "#PWR029" H 4000 1400 50  0001 C CNN
F 1 "+3V3" H 4000 1690 50  0000 C CNN
F 2 "" H 4000 1550 50  0000 C CNN
F 3 "" H 4000 1550 50  0000 C CNN
	1    4000 1550
	1    0    0    -1  
$EndComp
Connection ~ 4000 1600
Wire Wire Line
	2850 3050 2850 3800
Wire Wire Line
	2750 3050 2750 3900
Wire Wire Line
	2950 3700 3150 3700
Wire Wire Line
	2850 3800 3200 3800
Wire Wire Line
	2750 3900 3200 3900
Wire Wire Line
	3050 3050 3050 3150
$Comp
L devices21:ADP151 U11
U 1 1 5AC37092
P 9950 6100
F 0 "U11" H 9950 6350 60  0000 C CNN
F 1 "ADP151-1.8" H 9950 5850 60  0000 C CNN
F 2 "hw_design:SOT-23-5" H 9950 6100 60  0001 C CNN
F 3 "" H 9950 6100 60  0000 C CNN
	1    9950 6100
	1    0    0    -1  
$EndComp
$Comp
L power:GND #PWR030
U 1 1 5AC37098
P 9250 5700
F 0 "#PWR030" H 9250 5450 50  0001 C CNN
F 1 "GND" H 9250 5550 50  0000 C CNN
F 2 "" H 9250 5700 50  0000 C CNN
F 3 "" H 9250 5700 50  0000 C CNN
	1    9250 5700
	1    0    0    -1  
$EndComp
$Comp
L Device:C C37
U 1 1 5AC3709E
P 10750 5950
F 0 "C37" V 10700 5750 50  0000 L CNN
F 1 "2.2u" V 10700 6000 50  0000 L CNN
F 2 "hw_design:C_0603" H 10788 5800 50  0001 C CNN
F 3 "" H 10750 5950 50  0000 C CNN
	1    10750 5950
	0    1    1    0   
$EndComp
Wire Wire Line
	10600 5950 10500 5950
Wire Wire Line
	10500 5800 10500 5950
Connection ~ 10500 5950
Wire Wire Line
	10900 5950 11000 5950
Wire Wire Line
	9500 5450 9250 5450
$Comp
L devices21:ADP151 U8
U 1 1 5AC38591
P 8300 6100
F 0 "U8" H 8300 6350 60  0000 C CNN
F 1 "ADP151-3.3" H 8300 5850 60  0000 C CNN
F 2 "hw_design:SOT-23-5" H 8300 6100 60  0001 C CNN
F 3 "" H 8300 6100 60  0000 C CNN
	1    8300 6100
	1    0    0    -1  
$EndComp
$Comp
L power:GND #PWR031
U 1 1 5AC38597
P 7800 6350
F 0 "#PWR031" H 7800 6100 50  0001 C CNN
F 1 "GND" H 7800 6200 50  0000 C CNN
F 2 "" H 7800 6350 50  0000 C CNN
F 3 "" H 7800 6350 50  0000 C CNN
	1    7800 6350
	1    0    0    -1  
$EndComp
$Comp
L power:GND #PWR032
U 1 1 5AC385AF
P 7200 6350
F 0 "#PWR032" H 7200 6100 50  0001 C CNN
F 1 "GND" H 7200 6200 50  0000 C CNN
F 2 "" H 7200 6350 50  0000 C CNN
F 3 "" H 7200 6350 50  0000 C CNN
	1    7200 6350
	1    0    0    -1  
$EndComp
Wire Wire Line
	7750 6250 7850 6250
Wire Wire Line
	7100 5950 7200 5950
$Comp
L power:+5V #PWR033
U 1 1 5AC385C1
P 6750 5900
F 0 "#PWR033" H 6750 5750 50  0001 C CNN
F 1 "+5V" H 6750 6040 50  0000 C CNN
F 2 "" H 6750 5900 50  0000 C CNN
F 3 "" H 6750 5900 50  0000 C CNN
	1    6750 5900
	1    0    0    -1  
$EndComp
Wire Wire Line
	6900 5950 6750 5950
Wire Wire Line
	6750 5950 6750 5900
$Comp
L Device:C C21
U 1 1 5AC385D1
P 7500 6150
F 0 "C21" H 7525 6250 50  0000 L CNN
F 1 "100u" H 7550 6050 50  0000 L CNN
F 2 "hw_design:C_1206" H 7538 6000 50  0001 C CNN
F 3 "" H 7500 6150 50  0000 C CNN
	1    7500 6150
	1    0    0    -1  
$EndComp
$Comp
L Connector_Generic:Conn_01x03 P2
U 1 1 5AC3A0A1
P 5650 1650
F 0 "P2" H 5650 1850 50  0000 C CNN
F 1 "SWD" V 5750 1650 50  0000 C CNN
F 2 "hw_design:GS3" H 5650 1650 50  0001 C CNN
F 3 "" H 5650 1650 50  0000 C CNN
	1    5650 1650
	-1   0    0    1   
$EndComp
$Comp
L power:GND #PWR034
U 1 1 5AC3A0A9
P 5950 1850
F 0 "#PWR034" H 5950 1600 50  0001 C CNN
F 1 "GND" H 5950 1700 50  0000 C CNN
F 2 "" H 5950 1850 50  0000 C CNN
F 3 "" H 5950 1850 50  0000 C CNN
	1    5950 1850
	1    0    0    -1  
$EndComp
Wire Wire Line
	5850 1550 6000 1550
Wire Wire Line
	5850 1650 6000 1650
Wire Wire Line
	5850 1750 5950 1750
Wire Wire Line
	5950 1750 5950 1850
Text GLabel 6000 1550 2    60   Output ~ 0
SWCLK
Text GLabel 6000 1650 2    60   BiDi ~ 0
SWDIO
Text GLabel 2350 900  0    60   BiDi ~ 0
SDA
Text GLabel 2350 750  0    60   Output ~ 0
SCL
Wire Wire Line
	2550 1350 2550 900 
Wire Wire Line
	2650 1350 2650 750 
$Comp
L Device:R R3
U 1 1 5AC681E2
P 6700 3900
F 0 "R3" V 6780 3900 50  0000 C CNN
F 1 "10k" V 6700 3900 50  0000 C CNN
F 2 "hw_design:R_0603" V 6630 3900 50  0001 C CNN
F 3 "" H 6700 3900 50  0000 C CNN
	1    6700 3900
	0    -1   1    0   
$EndComp
$Comp
L Device:R R4
U 1 1 5AC682B1
P 6700 4050
F 0 "R4" V 6780 4050 50  0000 C CNN
F 1 "10k" V 6700 4050 50  0000 C CNN
F 2 "hw_design:R_0603" V 6630 4050 50  0001 C CNN
F 3 "" H 6700 4050 50  0000 C CNN
	1    6700 4050
	0    -1   1    0   
$EndComp
Wire Wire Line
	6550 3900 6450 3900
Wire Wire Line
	6550 4050 6450 4050
Wire Wire Line
	4200 1050 4300 1050
Connection ~ 3800 1050
$Comp
L power:GND #PWR035
U 1 1 5AC6ACF2
P 4850 2700
F 0 "#PWR035" H 4850 2450 50  0001 C CNN
F 1 "GND" H 4850 2550 50  0000 C CNN
F 2 "" H 4850 2700 50  0001 C CNN
F 3 "" H 4850 2700 50  0001 C CNN
	1    4850 2700
	1    0    0    -1  
$EndComp
Wire Wire Line
	3700 2500 4250 2500
Wire Wire Line
	7450 2950 7350 2950
Connection ~ 7350 2950
Wire Wire Line
	6850 2950 7200 2950
Wire Wire Line
	7200 2950 7200 3050
Wire Wire Line
	7200 3050 7450 3050
Wire Wire Line
	9650 2850 10350 2850
$Comp
L power:GND #PWR036
U 1 1 5AC6D9ED
P 10750 3350
F 0 "#PWR036" H 10750 3100 50  0001 C CNN
F 1 "GND" H 10750 3200 50  0000 C CNN
F 2 "" H 10750 3350 50  0001 C CNN
F 3 "" H 10750 3350 50  0001 C CNN
	1    10750 3350
	1    0    0    -1  
$EndComp
Wire Wire Line
	9650 3150 10000 3150
Wire Wire Line
	8500 1050 8500 1150
Wire Wire Line
	8900 5800 9050 5800
Text Label 7950 1150 0    60   ~ 0
+VP
NoConn ~ 8400 1800
NoConn ~ 7450 2650
NoConn ~ 8300 4000
$Comp
L Device:C C25
U 1 1 5AC6F028
P 8300 4700
F 0 "C25" V 8350 4800 50  0000 L CNN
F 1 "15u" V 8350 4500 50  0000 L CNN
F 2 "hw_design:C_0603" H 8338 4550 50  0001 C CNN
F 3 "" H 8300 4700 50  0001 C CNN
	1    8300 4700
	0    1    1    0   
$EndComp
Wire Wire Line
	9650 3350 9750 3350
Wire Wire Line
	9000 4050 9750 4050
Wire Wire Line
	9000 4050 9000 4000
$Comp
L Device:C C30
U 1 1 5AC6FA91
P 9150 4200
F 0 "C30" H 9175 4300 50  0000 L CNN
F 1 "2.2u" H 9175 4100 50  0000 L CNN
F 2 "hw_design:C_0603" H 9188 4050 50  0001 C CNN
F 3 "" H 9150 4200 50  0001 C CNN
	1    9150 4200
	0    1    1    0   
$EndComp
$Comp
L Device:C C24
U 1 1 5AC703DB
P 8300 4450
F 0 "C24" V 8350 4550 50  0000 L CNN
F 1 "15u" V 8350 4250 50  0000 L CNN
F 2 "hw_design:C_0603" H 8338 4300 50  0001 C CNN
F 3 "" H 8300 4450 50  0001 C CNN
	1    8300 4450
	0    1    1    0   
$EndComp
$Comp
L Device:C C31
U 1 1 5AC70D45
P 9150 4450
F 0 "C31" H 9175 4550 50  0000 L CNN
F 1 "2.2u" H 9175 4350 50  0000 L CNN
F 2 "hw_design:C_0603" H 9188 4300 50  0001 C CNN
F 3 "" H 9150 4450 50  0001 C CNN
	1    9150 4450
	0    1    1    0   
$EndComp
Wire Wire Line
	8900 4000 8900 4200
Wire Wire Line
	8900 4200 9000 4200
Wire Wire Line
	8700 4900 8700 4450
Wire Wire Line
	8450 4450 8700 4450
Wire Wire Line
	8500 4000 8500 4350
Wire Wire Line
	8500 4350 8100 4350
Wire Wire Line
	8100 4350 8100 4450
Wire Wire Line
	8100 4450 8150 4450
Connection ~ 8700 4450
Wire Wire Line
	8600 4000 8600 4600
Wire Wire Line
	8600 4600 8100 4600
Wire Wire Line
	8100 4600 8100 4700
Wire Wire Line
	8100 4700 8150 4700
Wire Wire Line
	8900 4700 8450 4700
Connection ~ 8900 4200
$Comp
L power:GND #PWR037
U 1 1 5AC72853
P 9400 4750
F 0 "#PWR037" H 9400 4500 50  0001 C CNN
F 1 "GND" H 9400 4600 50  0000 C CNN
F 2 "" H 9400 4750 50  0001 C CNN
F 3 "" H 9400 4750 50  0001 C CNN
	1    9400 4750
	1    0    0    -1  
$EndComp
Wire Wire Line
	9400 4750 9400 4450
Wire Wire Line
	9400 4200 9300 4200
Wire Wire Line
	9300 4450 9400 4450
Connection ~ 9400 4450
Wire Wire Line
	10500 5800 10600 5800
Text Label 10600 5800 0    60   ~ 0
+1V8VA
Text Label 8300 4900 0    60   ~ 0
+1V8VA
Wire Wire Line
	8400 4250 8400 4000
Wire Wire Line
	7200 4250 7600 4250
Connection ~ 7600 4250
Wire Wire Line
	8300 4900 8700 4900
$Comp
L Device:C C23
U 1 1 5AC7517D
P 8250 1300
F 0 "C23" H 8275 1400 50  0000 L CNN
F 1 "2.2u" H 8275 1200 50  0000 L CNN
F 2 "hw_design:C_0603" H 8288 1150 50  0001 C CNN
F 3 "" H 8250 1300 50  0001 C CNN
	1    8250 1300
	0    1    1    0   
$EndComp
$Comp
L Device:C C34
U 1 1 5AC756E3
P 10250 1750
F 0 "C34" H 10275 1850 50  0000 L CNN
F 1 "2.2u" H 10275 1650 50  0000 L CNN
F 2 "hw_design:C_0603" H 10288 1600 50  0001 C CNN
F 3 "" H 10250 1750 50  0001 C CNN
	1    10250 1750
	0    1    1    0   
$EndComp
$Comp
L Device:C C35
U 1 1 5AC757CE
P 10250 2000
F 0 "C35" H 10275 2100 50  0000 L CNN
F 1 "2.2u" H 10275 1900 50  0000 L CNN
F 2 "hw_design:C_0603" H 10288 1850 50  0001 C CNN
F 3 "" H 10250 2000 50  0001 C CNN
	1    10250 2000
	0    1    1    0   
$EndComp
$Comp
L Device:C C32
U 1 1 5AC758B6
P 9550 1400
F 0 "C32" H 9575 1500 50  0000 L CNN
F 1 "22u" H 9575 1300 50  0000 L CNN
F 2 "hw_design:C_0603" H 9588 1250 50  0001 C CNN
F 3 "" H 9550 1400 50  0001 C CNN
	1    9550 1400
	0    -1   -1   0   
$EndComp
$Comp
L Device:C C29
U 1 1 5AC75A43
P 9150 1400
F 0 "C29" H 9175 1500 50  0000 L CNN
F 1 "22u" H 9175 1300 50  0000 L CNN
F 2 "hw_design:C_0603" H 9188 1250 50  0001 C CNN
F 3 "" H 9150 1400 50  0001 C CNN
	1    9150 1400
	0    -1   -1   0   
$EndComp
Text Label 8950 1300 2    60   ~ 0
+1V8VA
$Comp
L power:GND #PWR038
U 1 1 5AC764EB
P 8000 1300
F 0 "#PWR038" H 8000 1050 50  0001 C CNN
F 1 "GND" H 8000 1150 50  0000 C CNN
F 2 "" H 8000 1300 50  0001 C CNN
F 3 "" H 8000 1300 50  0001 C CNN
	1    8000 1300
	0    1    1    0   
$EndComp
Wire Wire Line
	8000 1300 8100 1300
Wire Wire Line
	8600 1800 8600 1300
Wire Wire Line
	8400 1300 8600 1300
Connection ~ 8600 1300
Wire Wire Line
	9000 1400 8700 1400
Wire Wire Line
	8700 1400 8700 1800
Wire Wire Line
	9700 1400 9750 1400
Wire Wire Line
	9750 1400 9750 2450
Wire Wire Line
	9750 2450 9650 2450
Wire Wire Line
	9300 1400 9350 1400
Wire Wire Line
	8800 1800 8800 1550
Wire Wire Line
	8800 1550 9350 1550
Wire Wire Line
	9350 1550 9350 1400
Connection ~ 9350 1400
$Comp
L power:GND #PWR039
U 1 1 5AC77D42
P 10500 2100
F 0 "#PWR039" H 10500 1850 50  0001 C CNN
F 1 "GND" H 10500 1950 50  0000 C CNN
F 2 "" H 10500 2100 50  0001 C CNN
F 3 "" H 10500 2100 50  0001 C CNN
	1    10500 2100
	1    0    0    -1  
$EndComp
Wire Wire Line
	10400 1750 10500 1750
Wire Wire Line
	10500 1750 10500 2000
Wire Wire Line
	10400 2000 10500 2000
Connection ~ 10500 2000
Wire Wire Line
	10100 1750 9000 1750
Wire Wire Line
	9000 1750 9000 1800
Wire Wire Line
	9650 2650 10050 2650
Wire Wire Line
	10050 2650 10050 2000
Wire Wire Line
	10050 2000 10100 2000
Wire Wire Line
	9650 2750 10200 2750
Wire Wire Line
	8900 1700 8900 1800
Connection ~ 8200 1700
NoConn ~ 2000 2200
NoConn ~ 3150 3050
Wire Wire Line
	2300 1300 2300 1250
$Comp
L power:GND #PWR040
U 1 1 5AC7F802
P 9050 6350
F 0 "#PWR040" H 9050 6100 50  0001 C CNN
F 1 "GND" H 9050 6200 50  0000 C CNN
F 2 "" H 9050 6350 50  0000 C CNN
F 3 "" H 9050 6350 50  0000 C CNN
	1    9050 6350
	1    0    0    -1  
$EndComp
$Comp
L power:GND #PWR041
U 1 1 5AC7F8E5
P 9250 6150
F 0 "#PWR041" H 9250 5900 50  0001 C CNN
F 1 "GND" H 9250 6000 50  0000 C CNN
F 2 "" H 9250 6150 50  0000 C CNN
F 3 "" H 9250 6150 50  0000 C CNN
	1    9250 6150
	1    0    0    -1  
$EndComp
$Comp
L power:GND #PWR042
U 1 1 5AC7F9C8
P 11000 5400
F 0 "#PWR042" H 11000 5150 50  0001 C CNN
F 1 "GND" H 11000 5250 50  0000 C CNN
F 2 "" H 11000 5400 50  0000 C CNN
F 3 "" H 11000 5400 50  0000 C CNN
	1    11000 5400
	1    0    0    -1  
$EndComp
$Comp
L power:GND #PWR043
U 1 1 5AC80056
P 4500 6150
F 0 "#PWR043" H 4500 5900 50  0001 C CNN
F 1 "GND" H 4500 6000 50  0000 C CNN
F 2 "" H 4500 6150 50  0000 C CNN
F 3 "" H 4500 6150 50  0000 C CNN
	1    4500 6150
	1    0    0    -1  
$EndComp
$Comp
L power:GND #PWR044
U 1 1 5AC80139
P 4800 6150
F 0 "#PWR044" H 4800 5900 50  0001 C CNN
F 1 "GND" H 4800 6000 50  0000 C CNN
F 2 "" H 4800 6150 50  0000 C CNN
F 3 "" H 4800 6150 50  0000 C CNN
	1    4800 6150
	1    0    0    -1  
$EndComp
$Comp
L power:GND #PWR045
U 1 1 5AC8021C
P 5100 6150
F 0 "#PWR045" H 5100 5900 50  0001 C CNN
F 1 "GND" H 5100 6000 50  0000 C CNN
F 2 "" H 5100 6150 50  0000 C CNN
F 3 "" H 5100 6150 50  0000 C CNN
	1    5100 6150
	1    0    0    -1  
$EndComp
$Comp
L power:GND #PWR046
U 1 1 5AC802FF
P 4800 5100
F 0 "#PWR046" H 4800 4850 50  0001 C CNN
F 1 "GND" H 4800 4950 50  0000 C CNN
F 2 "" H 4800 5100 50  0000 C CNN
F 3 "" H 4800 5100 50  0000 C CNN
	1    4800 5100
	1    0    0    -1  
$EndComp
$Comp
L power:GND #PWR047
U 1 1 5AC803E2
P 5400 5100
F 0 "#PWR047" H 5400 4850 50  0001 C CNN
F 1 "GND" H 5400 4950 50  0000 C CNN
F 2 "" H 5400 5100 50  0000 C CNN
F 3 "" H 5400 5100 50  0000 C CNN
	1    5400 5100
	1    0    0    -1  
$EndComp
Wire Wire Line
	9500 5300 9400 5300
Wire Wire Line
	9050 6300 9050 6350
Wire Wire Line
	8750 5950 9050 5950
Wire Wire Line
	2950 1250 2950 1350
Wire Wire Line
	2750 1350 2750 1250
Connection ~ 2750 1250
Wire Wire Line
	2850 1350 2850 1250
Connection ~ 2850 1250
$Comp
L power:GND #PWR048
U 1 1 5ACA6AD4
P 4800 4050
F 0 "#PWR048" H 4800 3800 50  0001 C CNN
F 1 "GND" H 4800 3900 50  0000 C CNN
F 2 "" H 4800 4050 50  0000 C CNN
F 3 "" H 4800 4050 50  0000 C CNN
	1    4800 4050
	-1   0    0    1   
$EndComp
$Comp
L Device:C C20
U 1 1 5ACAA96B
P 7200 6150
F 0 "C20" H 7225 6250 50  0000 L CNN
F 1 "100u" H 7250 6050 50  0000 L CNN
F 2 "hw_design:C_1206" H 7238 6000 50  0001 C CNN
F 3 "" H 7200 6150 50  0000 C CNN
	1    7200 6150
	1    0    0    -1  
$EndComp
$Comp
L power:GND #PWR049
U 1 1 5ACAAD73
P 7500 6350
F 0 "#PWR049" H 7500 6100 50  0001 C CNN
F 1 "GND" H 7500 6200 50  0000 C CNN
F 2 "" H 7500 6350 50  0000 C CNN
F 3 "" H 7500 6350 50  0000 C CNN
	1    7500 6350
	1    0    0    -1  
$EndComp
Wire Wire Line
	7800 6350 7800 6100
Wire Wire Line
	7800 6100 7850 6100
Wire Wire Line
	7500 6000 7500 5950
Connection ~ 7500 5950
Wire Wire Line
	7200 5850 7200 5950
Connection ~ 7200 5950
Wire Wire Line
	7200 6300 7200 6350
Wire Wire Line
	7500 6300 7500 6350
Wire Wire Line
	9050 5800 9050 5950
Connection ~ 9050 5950
$Comp
L power:GND #PWR050
U 1 1 5ACACC89
P 11000 6050
F 0 "#PWR050" H 11000 5800 50  0001 C CNN
F 1 "GND" H 11000 5900 50  0000 C CNN
F 2 "" H 11000 6050 50  0000 C CNN
F 3 "" H 11000 6050 50  0000 C CNN
	1    11000 6050
	1    0    0    -1  
$EndComp
Wire Wire Line
	11000 5950 11000 6050
Wire Wire Line
	11000 5300 11000 5400
Text Label 5450 4550 0    60   ~ 0
+1V8OSC
Text Label 4850 4550 0    60   ~ 0
+1V8OSC
Wire Wire Line
	3650 7100 3650 7200
Wire Wire Line
	3650 6500 3650 6600
Wire Wire Line
	2050 6450 2050 6500
Wire Wire Line
	2050 6500 2150 6500
Connection ~ 2050 6800
Wire Wire Line
	1200 7100 1300 7100
Text Label 8900 5800 0    60   ~ 0
+VP
$Comp
L power:+5V #PWR052
U 1 1 5ACB6B6D
P 850 7050
F 0 "#PWR052" H 850 6900 50  0001 C CNN
F 1 "+5V" H 850 7190 50  0000 C CNN
F 2 "" H 850 7050 50  0000 C CNN
F 3 "" H 850 7050 50  0000 C CNN
	1    850  7050
	1    0    0    -1  
$EndComp
Wire Wire Line
	1000 7100 850  7100
Wire Wire Line
	850  7100 850  7050
$Comp
L Device:C C7
U 1 1 5ACB6B75
P 1600 7300
F 0 "C7" H 1625 7400 50  0000 L CNN
F 1 "100u" H 1650 7200 50  0000 L CNN
F 2 "hw_design:C_1206" H 1638 7150 50  0001 C CNN
F 3 "" H 1600 7300 50  0000 C CNN
	1    1600 7300
	1    0    0    -1  
$EndComp
$Comp
L Device:L_Small L1
U 1 1 5ACB6B7B
P 1100 7100
F 0 "L1" V 1050 7150 50  0000 L CNN
F 1 "LPS3015 100u" V 1000 6550 50  0000 L CNN
F 2 "hw_design:Choke_SMD_LPS30" H 1100 7100 50  0001 C CNN
F 3 "" H 1100 7100 50  0000 C CNN
	1    1100 7100
	0    1    -1   0   
$EndComp
$Comp
L power:GND #PWR053
U 1 1 5ACB6B87
P 1600 7500
F 0 "#PWR053" H 1600 7250 50  0001 C CNN
F 1 "GND" H 1600 7350 50  0000 C CNN
F 2 "" H 1600 7500 50  0000 C CNN
F 3 "" H 1600 7500 50  0000 C CNN
	1    1600 7500
	1    0    0    -1  
$EndComp
Wire Wire Line
	1600 7150 1600 7100
Connection ~ 1600 7100
Wire Wire Line
	1300 7000 1300 7100
Connection ~ 1300 7100
Wire Wire Line
	1600 7450 1600 7500
Wire Wire Line
	9250 5450 9250 5700
Wire Wire Line
	9250 6100 9250 6150
$Comp
L devices21:ADP151 U7
U 1 1 5ACB8B71
P 5600 7250
F 0 "U7" H 5600 7500 60  0000 C CNN
F 1 "ADP151-1.8" H 5600 7000 60  0000 C CNN
F 2 "hw_design:SOT-23-5" H 5600 7250 60  0001 C CNN
F 3 "" H 5600 7250 60  0000 C CNN
	1    5600 7250
	1    0    0    -1  
$EndComp
$Comp
L Device:C C18
U 1 1 5ACB8B77
P 6400 7100
F 0 "C18" V 6350 6900 50  0000 L CNN
F 1 "2.2u" V 6350 7150 50  0000 L CNN
F 2 "hw_design:C_0603" H 6438 6950 50  0001 C CNN
F 3 "" H 6400 7100 50  0000 C CNN
	1    6400 7100
	0    1    1    0   
$EndComp
Wire Wire Line
	6250 7100 6150 7100
Connection ~ 6150 7100
Wire Wire Line
	6550 7100 6650 7100
Text Label 6250 6950 0    60   ~ 0
+1V8VD
Wire Wire Line
	6250 6950 6150 6950
Wire Wire Line
	6150 6950 6150 7100
$Comp
L power:GND #PWR054
U 1 1 5ACB8B83
P 6650 7200
F 0 "#PWR054" H 6650 6950 50  0001 C CNN
F 1 "GND" H 6650 7050 50  0000 C CNN
F 2 "" H 6650 7200 50  0000 C CNN
F 3 "" H 6650 7200 50  0000 C CNN
	1    6650 7200
	1    0    0    -1  
$EndComp
Wire Wire Line
	6650 7100 6650 7200
$Comp
L power:GND #PWR055
U 1 1 5ACBA250
P 5100 7500
F 0 "#PWR055" H 5100 7250 50  0001 C CNN
F 1 "GND" H 5100 7350 50  0000 C CNN
F 2 "" H 5100 7500 50  0000 C CNN
F 3 "" H 5100 7500 50  0000 C CNN
	1    5100 7500
	1    0    0    -1  
$EndComp
Wire Wire Line
	5100 7500 5100 7250
Wire Wire Line
	5100 7250 5150 7250
Wire Wire Line
	5150 7400 5050 7400
Wire Wire Line
	5050 7400 5050 7100
Wire Wire Line
	4650 7100 5050 7100
Text Label 6800 2250 0    60   ~ 0
+1V8VD
Wire Wire Line
	6800 2250 7350 2250
Text Label 7200 4250 0    60   ~ 0
+1V8VD
Wire Wire Line
	7600 4650 7600 4700
Wire Wire Line
	7600 4350 7600 4250
Text Label 1600 7000 2    60   ~ 0
+5VDIG
Wire Wire Line
	1600 7000 1300 7000
Connection ~ 5050 7100
$Comp
L power:GND #PWR056
U 1 1 5ACC3E09
P 6100 3400
F 0 "#PWR056" H 6100 3150 50  0001 C CNN
F 1 "GND" H 6100 3250 50  0000 C CNN
F 2 "" H 6100 3400 50  0001 C CNN
F 3 "" H 6100 3400 50  0001 C CNN
	1    6100 3400
	1    0    0    -1  
$EndComp
Wire Wire Line
	6100 3350 6100 3400
$Comp
L Device:C C15
U 1 1 5ACC4352
P 5900 2750
F 0 "C15" H 5925 2850 50  0000 L CNN
F 1 "100n" H 5925 2650 50  0000 L CNN
F 2 "hw_design:C_0603" H 5938 2600 50  0001 C CNN
F 3 "" H 5900 2750 50  0001 C CNN
	1    5900 2750
	0    -1   -1   0   
$EndComp
$Comp
L power:GND #PWR057
U 1 1 5ACC4443
P 5700 2800
F 0 "#PWR057" H 5700 2550 50  0001 C CNN
F 1 "GND" H 5700 2650 50  0000 C CNN
F 2 "" H 5700 2800 50  0001 C CNN
F 3 "" H 5700 2800 50  0001 C CNN
	1    5700 2800
	1    0    0    -1  
$EndComp
Wire Wire Line
	5700 2800 5700 2750
Wire Wire Line
	5700 2750 5750 2750
Wire Wire Line
	6100 2750 6100 2950
Text Label 6500 2750 2    60   ~ 0
+1V8VD
Connection ~ 6100 2750
Wire Wire Line
	6050 2750 6100 2750
$Comp
L Device:L_Small L2
U 1 1 5ACC6ED8
P 7000 5950
F 0 "L2" V 6950 6000 50  0000 L CNN
F 1 "LPS3015 100u" V 6900 5400 50  0000 L CNN
F 2 "hw_design:Choke_SMD_LPS30" H 7000 5950 50  0001 C CNN
F 3 "" H 7000 5950 50  0000 C CNN
	1    7000 5950
	0    1    -1   0   
$EndComp
Text Label 6050 3900 0    60   ~ 0
+1V8VD
Wire Wire Line
	6450 4050 6450 3900
Connection ~ 6450 3900
Wire Wire Line
	8400 650  8500 650 
Wire Wire Line
	8500 650  8500 750 
Wire Wire Line
	7950 1150 8500 1150
$Comp
L devices21:NC7SZU04P5 U5
U 1 1 5ACB1AF3
P 6050 3150
F 0 "U5" H 6245 3265 50  0000 C CNN
F 1 "NC7SZ04P5" H 6250 2950 50  0000 C CNN
F 2 "hw_design:SC-70-5" H 6050 3050 50  0001 C CNN
F 3 "" H 6050 3050 50  0000 C CNN
	1    6050 3150
	-1   0    0    -1  
$EndComp
Wire Wire Line
	5750 3150 5800 3150
Text Label 4650 7100 0    60   ~ 0
+5VANA
Text Label 7600 5850 2    60   ~ 0
+5VANA
Wire Wire Line
	7600 5850 7200 5850
$Comp
L devices21:JACK_35RASMT2BHNTRX X2
U 1 1 5ACBD185
P 10550 2950
F 0 "X2" H 10500 2850 50  0000 C CNN
F 1 "JACK_35RASMT2BHNTRX" H 10400 3200 50  0000 C CNN
F 2 "hw_design:35RASMT2BHNTRX_Jack_no_holes" H 10800 3050 50  0001 C CNN
F 3 "" H 10800 3050 50  0001 C CNN
	1    10550 2950
	-1   0    0    -1  
$EndComp
$Comp
L Connector:USB_A X1
U 1 1 5ACBF9AC
P 950 4850
F 0 "X1" H 750 5300 50  0000 L CNN
F 1 "USB_A" H 750 5200 50  0000 L CNN
F 2 "hw_design:MOLEX-48037-1000-USB" H 1100 4800 50  0001 C CNN
F 3 "" H 1100 4800 50  0001 C CNN
	1    950  4850
	1    0    0    -1  
$EndComp
Text GLabel 3250 1150 2    60   Output ~ 0
PA15
Wire Wire Line
	3250 1150 3050 1150
Wire Wire Line
	3050 1150 3050 1350
Text GLabel 4900 850  0    60   Input ~ 0
PA15
Wire Wire Line
	4900 850  5000 850 
Text GLabel 1950 2400 0    60   Output ~ 0
PA0
Text GLabel 8950 5450 0    60   Input ~ 0
PA0
$Comp
L Device:R R8
U 1 1 5ACF9984
P 8850 5600
F 0 "R8" V 8930 5600 50  0000 C CNN
F 1 "10k" V 8850 5600 50  0000 C CNN
F 2 "hw_design:R_0603" V 8780 5600 50  0001 C CNN
F 3 "" H 8850 5600 50  0000 C CNN
	1    8850 5600
	0    -1   1    0   
$EndComp
$Comp
L power:GND #PWR058
U 1 1 5ACFA08F
P 8650 5650
F 0 "#PWR058" H 8650 5400 50  0001 C CNN
F 1 "GND" H 8650 5500 50  0000 C CNN
F 2 "" H 8650 5650 50  0000 C CNN
F 3 "" H 8650 5650 50  0000 C CNN
	1    8650 5650
	-1   0    0    -1  
$EndComp
Wire Wire Line
	8650 5650 8650 5600
Wire Wire Line
	8650 5600 8700 5600
$Comp
L power:GND #PWR059
U 1 1 5ADDF70F
P 1100 1950
F 0 "#PWR059" H 1100 1700 50  0001 C CNN
F 1 "GND" H 1100 1800 50  0000 C CNN
F 2 "" H 1100 1950 50  0000 C CNN
F 3 "" H 1100 1950 50  0000 C CNN
	1    1100 1950
	-1   0    0    1   
$EndComp
Wire Wire Line
	1100 1950 1100 2100
$Comp
L power:GND #PWR060
U 1 1 5ADE036A
P 4400 5500
F 0 "#PWR060" H 4400 5250 50  0001 C CNN
F 1 "GND" H 4400 5350 50  0000 C CNN
F 2 "" H 4400 5500 50  0000 C CNN
F 3 "" H 4400 5500 50  0000 C CNN
	1    4400 5500
	1    0    0    -1  
$EndComp
Wire Wire Line
	4400 5500 4400 5450
Wire Wire Line
	4400 5450 4800 5450
Wire Wire Line
	4800 5450 4800 5500
Wire Wire Line
	7750 5850 7750 5950
Connection ~ 7750 5950
Wire Wire Line
	9500 5600 9050 5600
Wire Wire Line
	8950 5450 9050 5450
Wire Wire Line
	9050 5450 9050 5600
Connection ~ 9050 5600
$Comp
L Device:R R13
U 1 1 5AEC9D5A
P 3150 3450
F 0 "R13" V 3050 3450 50  0000 C CNN
F 1 "27" V 3150 3450 50  0000 C CNN
F 2 "hw_design:R_0603" V 3080 3450 50  0001 C CNN
F 3 "" H 3150 3450 50  0001 C CNN
	1    3150 3450
	-1   0    0    1   
$EndComp
Wire Wire Line
	3150 3600 3150 3700
Connection ~ 3150 3700
Wire Wire Line
	3150 3300 3150 3150
Wire Wire Line
	3150 3150 3050 3150
$Comp
L devices21:MCP100 U12
U 1 1 5AFC1486
P 4500 2600
F 0 "U12" H 4500 2850 60  0000 C CNN
F 1 "MCP120-3.15" H 4400 2350 60  0000 C CNN
F 2 "hw_design:SOT-23" H 4500 2600 60  0001 C CNN
F 3 "" H 4500 2600 60  0001 C CNN
	1    4500 2600
	1    0    0    -1  
$EndComp
Wire Wire Line
	3800 2300 3700 2300
Wire Wire Line
	4750 2600 4850 2600
Wire Wire Line
	4850 2600 4850 2700
Wire Wire Line
	4000 2700 4250 2700
Connection ~ 4000 2200
$Comp
L Switch:SW_Push SW1
U 1 1 5AFC50EF
P 800 1000
F 0 "SW1" H 850 1100 50  0000 L CNN
F 1 "P-TS1107GS" H 800 940 50  0000 C CNN
F 2 "hw_design:Button_P-TS1107GS" H 800 1200 50  0001 C CNN
F 3 "" H 800 1200 50  0001 C CNN
	1    800  1000
	0    -1   -1   0   
$EndComp
Wire Wire Line
	3900 1050 3800 1050
Wire Wire Line
	2300 1250 2750 1250
$Comp
L power:GND #PWR061
U 1 1 5AFC996C
P 800 1700
F 0 "#PWR061" H 800 1450 50  0001 C CNN
F 1 "GND" H 800 1550 50  0000 C CNN
F 2 "" H 800 1700 50  0000 C CNN
F 3 "" H 800 1700 50  0000 C CNN
	1    800  1700
	1    0    0    -1  
$EndComp
$Comp
L power:+1V8 #PWR062
U 1 1 5AFC9A49
P 800 750
F 0 "#PWR062" H 800 600 50  0001 C CNN
F 1 "+1V8" H 800 890 50  0000 C CNN
F 2 "" H 800 750 50  0001 C CNN
F 3 "" H 800 750 50  0001 C CNN
	1    800  750 
	1    0    0    -1  
$EndComp
Wire Wire Line
	800  750  800  800 
Wire Wire Line
	800  1600 800  1650
Wire Wire Line
	800  1200 800  1250
$Comp
L Device:R R6
U 1 1 5AFCA227
P 1050 1250
F 0 "R6" V 1130 1250 50  0000 C CNN
F 1 "10k" V 1050 1250 50  0000 C CNN
F 2 "hw_design:R_0603" V 980 1250 50  0001 C CNN
F 3 "" H 1050 1250 50  0000 C CNN
	1    1050 1250
	0    -1   -1   0   
$EndComp
$Comp
L Device:C C13
U 1 1 5AFCA312
P 1300 1450
F 0 "C13" H 1325 1550 50  0000 L CNN
F 1 "100n" H 1325 1350 50  0000 L CNN
F 2 "hw_design:C_0603" H 1338 1300 50  0001 C CNN
F 3 "" H 1300 1450 50  0001 C CNN
	1    1300 1450
	1    0    0    -1  
$EndComp
Wire Wire Line
	1300 1600 1300 1650
Wire Wire Line
	1300 1650 800  1650
Connection ~ 800  1650
Wire Wire Line
	900  1250 800  1250
Connection ~ 800  1250
Wire Wire Line
	1200 1250 1300 1250
Wire Wire Line
	1300 1250 1300 1300
Connection ~ 1300 1250
Wire Wire Line
	2000 2400 1950 2400
Wire Wire Line
	1650 2800 1650 2900
Wire Wire Line
	1650 1900 1650 2300
Connection ~ 1650 2300
Wire Wire Line
	2000 1900 1900 1900
Wire Wire Line
	1900 1900 1900 1250
$Comp
L power:GND #PWR063
U 1 1 5AFCFE01
P 9850 3350
F 0 "#PWR063" H 9850 3100 50  0001 C CNN
F 1 "GND" H 9850 3200 50  0000 C CNN
F 2 "" H 9850 3350 50  0001 C CNN
F 3 "" H 9850 3350 50  0001 C CNN
	1    9850 3350
	1    0    0    -1  
$EndComp
Wire Wire Line
	9650 2950 9850 2950
Wire Wire Line
	9650 3250 9850 3250
Connection ~ 9850 3250
Connection ~ 9850 2950
Wire Wire Line
	9750 3350 9750 3700
Wire Wire Line
	9750 4050 9750 4000
Wire Wire Line
	10350 2950 10000 2950
Wire Wire Line
	10000 2950 10000 3050
Wire Wire Line
	10000 3050 9650 3050
Wire Wire Line
	10200 2750 10200 3150
Wire Wire Line
	10200 3150 10750 3150
Connection ~ 10750 3150
Wire Wire Line
	10000 3150 10000 3250
Wire Wire Line
	10000 3250 10750 3250
Connection ~ 10750 3250
Wire Wire Line
	9850 2550 9850 2950
Wire Wire Line
	10750 3050 10750 3150
Wire Wire Line
	2650 750  2350 750 
Wire Wire Line
	2550 900  2350 900 
Wire Wire Line
	6850 3500 6950 3500
Connection ~ 6950 4050
Wire Wire Line
	7050 3900 7050 3350
Connection ~ 7050 3350
$Comp
L Device:C C39
U 1 1 5AFD6AF0
P 7950 4500
F 0 "C39" H 7975 4600 50  0000 L CNN
F 1 "10p" H 8000 4400 50  0000 L CNN
F 2 "hw_design:C_0603" H 7988 4350 50  0001 C CNN
F 3 "" H 7950 4500 50  0000 C CNN
	1    7950 4500
	-1   0    0    1   
$EndComp
$Comp
L power:GND #PWR064
U 1 1 5AFD6BFF
P 7950 4700
F 0 "#PWR064" H 7950 4450 50  0001 C CNN
F 1 "GND" H 7950 4550 50  0000 C CNN
F 2 "" H 7950 4700 50  0001 C CNN
F 3 "" H 7950 4700 50  0001 C CNN
	1    7950 4700
	1    0    0    -1  
$EndComp
Wire Wire Line
	7950 4650 7950 4700
Wire Wire Line
	7950 4350 7950 4150
Connection ~ 7950 4150
Wire Wire Line
	2000 2500 1950 2500
NoConn ~ 10400 5600
NoConn ~ 10400 6250
NoConn ~ 8750 6250
NoConn ~ 6050 7400
NoConn ~ 3050 7400
NoConn ~ 3050 6800
Text GLabel 1950 2500 0    60   Output ~ 0
RST
$Comp
L power:PWR_FLAG #FLG065
U 1 1 5AFDB50B
P 2050 6450
F 0 "#FLG065" H 2050 6525 50  0001 C CNN
F 1 "PWR_FLAG" H 2050 6600 50  0000 C CNN
F 2 "" H 2050 6450 50  0001 C CNN
F 3 "" H 2050 6450 50  0001 C CNN
	1    2050 6450
	1    0    0    -1  
$EndComp
Wire Wire Line
	9400 5300 9400 5950
Connection ~ 2050 6500
Wire Wire Line
	1350 4350 1350 4500
$Comp
L power:PWR_FLAG #FLG066
U 1 1 5AFE1514
P 1550 5550
F 0 "#FLG066" H 1550 5625 50  0001 C CNN
F 1 "PWR_FLAG" H 1550 5700 50  0000 C CNN
F 2 "" H 1550 5550 50  0001 C CNN
F 3 "" H 1550 5550 50  0001 C CNN
	1    1550 5550
	1    0    0    -1  
$EndComp
Wire Wire Line
	1550 5650 1550 5550
$Comp
L power:PWR_FLAG #FLG067
U 1 1 5AFE2ABD
P 1350 4350
F 0 "#FLG067" H 1350 4425 50  0001 C CNN
F 1 "PWR_FLAG" H 1350 4500 50  0000 C CNN
F 2 "" H 1350 4350 50  0001 C CNN
F 3 "" H 1350 4350 50  0001 C CNN
	1    1350 4350
	1    0    0    -1  
$EndComp
$Comp
L power:PWR_FLAG #FLG068
U 1 1 5AFE3308
P 7750 5850
F 0 "#FLG068" H 7750 5925 50  0001 C CNN
F 1 "PWR_FLAG" H 7750 6000 50  0000 C CNN
F 2 "" H 7750 5850 50  0001 C CNN
F 3 "" H 7750 5850 50  0001 C CNN
	1    7750 5850
	1    0    0    -1  
$EndComp
Wire Wire Line
	7050 1550 7100 1550
$Comp
L Device:R R14
U 1 1 5AFE8750
P 7250 1550
F 0 "R14" V 7330 1550 50  0000 C CNN
F 1 "1k" V 7250 1550 50  0000 C CNN
F 2 "hw_design:R_0603" V 7180 1550 50  0001 C CNN
F 3 "" H 7250 1550 50  0000 C CNN
	1    7250 1550
	0    -1   -1   0   
$EndComp
Wire Wire Line
	7050 3900 6850 3900
Wire Wire Line
	6950 3500 6950 4050
Wire Wire Line
	8500 1150 8500 1800
Wire Wire Line
	7350 2850 7350 2950
Wire Wire Line
	8100 1700 8200 1700
Wire Wire Line
	7350 2450 7250 2450
Wire Wire Line
	7350 3350 7350 3450
Wire Wire Line
	3150 6500 3050 6500
Wire Wire Line
	850  5450 850  5650
Wire Wire Line
	1350 4500 1250 4500
Wire Wire Line
	1350 4500 1350 4650
Wire Wire Line
	5100 4850 5200 4850
Wire Wire Line
	4500 5350 4650 5350
Wire Wire Line
	5100 5350 5100 5700
Wire Wire Line
	9400 5950 9500 5950
Wire Wire Line
	9400 5950 9400 6250
Wire Wire Line
	10500 5300 10400 5300
Wire Wire Line
	2250 4950 2350 4950
Wire Wire Line
	1350 5650 1550 5650
Wire Wire Line
	1350 5650 1350 5750
Wire Wire Line
	1350 5450 1350 5650
Wire Wire Line
	1450 4850 2350 4850
Wire Wire Line
	4800 4550 4800 4650
Wire Wire Line
	800  2300 800  2500
Wire Wire Line
	1400 2300 1400 2500
Wire Wire Line
	4800 4100 4800 4150
Wire Wire Line
	7350 3450 7350 3550
Wire Wire Line
	4500 5700 4500 5750
Wire Wire Line
	5100 5700 5100 5750
Wire Wire Line
	5400 4550 5400 4650
Wire Wire Line
	2050 7100 2050 7400
Wire Wire Line
	2050 7100 2150 7100
Wire Wire Line
	3150 7100 3050 7100
Wire Wire Line
	4000 1600 4000 2200
Wire Wire Line
	10500 5950 10400 5950
Wire Wire Line
	3800 1050 3800 2300
Wire Wire Line
	7350 2950 7350 3350
Wire Wire Line
	8700 4450 8700 4000
Wire Wire Line
	8700 4450 9000 4450
Wire Wire Line
	8900 4200 8900 4700
Wire Wire Line
	9400 4450 9400 4200
Wire Wire Line
	7600 4250 8400 4250
Wire Wire Line
	8600 1300 8950 1300
Wire Wire Line
	9350 1400 9400 1400
Wire Wire Line
	10500 2000 10500 2100
Wire Wire Line
	8200 1700 8900 1700
Wire Wire Line
	2750 1250 2850 1250
Wire Wire Line
	2850 1250 2950 1250
Wire Wire Line
	7500 5950 7750 5950
Wire Wire Line
	7200 5950 7500 5950
Wire Wire Line
	7200 5950 7200 6000
Wire Wire Line
	9050 5950 9400 5950
Wire Wire Line
	9050 5950 9050 6000
Wire Wire Line
	2050 6800 2050 7100
Wire Wire Line
	1600 7100 2050 7100
Wire Wire Line
	1300 7100 1600 7100
Wire Wire Line
	6150 7100 6050 7100
Wire Wire Line
	5050 7100 5150 7100
Wire Wire Line
	6100 2750 6500 2750
Wire Wire Line
	6450 3900 6050 3900
Wire Wire Line
	7750 5950 7750 6250
Wire Wire Line
	7750 5950 7850 5950
Wire Wire Line
	9050 5600 9000 5600
Wire Wire Line
	3150 3700 3250 3700
Wire Wire Line
	4000 2200 4000 2700
Wire Wire Line
	800  1650 800  1700
Wire Wire Line
	800  1250 800  1300
Wire Wire Line
	1300 1250 1900 1250
Wire Wire Line
	1650 2300 1650 2500
Wire Wire Line
	9850 3250 9850 3350
Wire Wire Line
	9850 2950 9850 3250
Wire Wire Line
	10750 3150 10750 3250
Wire Wire Line
	10750 3250 10750 3350
Wire Wire Line
	6950 4050 8100 4050
Wire Wire Line
	7050 3350 6850 3350
Wire Wire Line
	7950 4150 8200 4150
Wire Wire Line
	2050 6500 2050 6800
Wire Wire Line
	5000 1250 5000 1400
Wire Wire Line
	5000 1700 5000 1850
$EndSCHEMATC
