%TF.GenerationSoftware,KiCad,Pcbnew,(5.1.10)-1*%
%TF.CreationDate,2021-08-14T01:43:31+02:00*%
%TF.ProjectId,uDAC,75444143-2e6b-4696-9361-645f70636258,0.8*%
%TF.SameCoordinates,Original*%
%TF.FileFunction,Legend,Bot*%
%TF.FilePolarity,Positive*%
%FSLAX46Y46*%
G04 Gerber Fmt 4.6, Leading zero omitted, Abs format (unit mm)*
G04 Created by KiCad (PCBNEW (5.1.10)-1) date 2021-08-14 01:43:31*
%MOMM*%
%LPD*%
G01*
G04 APERTURE LIST*
%ADD10C,0.100000*%
%ADD11C,0.200000*%
%ADD12C,0.150000*%
%ADD13C,0.300000*%
%TA.AperFunction,Profile*%
%ADD14C,0.150000*%
%TD*%
%ADD15C,0.120000*%
G04 APERTURE END LIST*
D10*
X124752300Y-75865264D02*
X124752300Y-75357264D01*
X125006300Y-75357264D02*
X125006300Y-75865264D01*
X124752300Y-75357264D02*
G75*
G02*
X125006300Y-75357264I127000J0D01*
G01*
X124079200Y-75077864D02*
G75*
G02*
X124333200Y-75077864I127000J0D01*
G01*
X124587200Y-75484264D02*
X124587200Y-76093864D01*
X124676100Y-76043064D02*
G75*
G02*
X124422100Y-76043064I-127000J0D01*
G01*
X124676100Y-75535064D02*
X124676100Y-76043064D01*
X124511000Y-76119264D02*
X124511000Y-75484264D01*
X125006300Y-75865264D02*
G75*
G02*
X124752300Y-75865264I-127000J0D01*
G01*
X124422100Y-76043064D02*
X124422100Y-75535064D01*
X124422100Y-75535064D02*
G75*
G02*
X124676100Y-75535064I127000J0D01*
G01*
X124333200Y-75839864D02*
G75*
G02*
X124079200Y-75839864I-127000J0D01*
G01*
X124104600Y-75027064D02*
X124333200Y-75242964D01*
X124333200Y-75077864D02*
X124333200Y-75839864D01*
X124104600Y-75611264D02*
X124333200Y-75839864D01*
X124104600Y-75814464D02*
X124231600Y-75941464D01*
X123126700Y-75712864D02*
G75*
G02*
X122872700Y-75712864I-127000J0D01*
G01*
X122872700Y-75712864D02*
X122872700Y-75204864D01*
X123126700Y-75204864D02*
X123126700Y-75712864D01*
X122872700Y-75204864D02*
G75*
G02*
X123126700Y-75204864I127000J0D01*
G01*
D11*
X123444200Y-75268364D02*
X123444200Y-76284364D01*
X123253700Y-75458864D02*
G75*
G02*
X123634700Y-75458864I190500J0D01*
G01*
X123317200Y-76284364D02*
X123317200Y-75395364D01*
X123253700Y-76157364D02*
X123253700Y-75458864D01*
X123444200Y-76284364D02*
X123571200Y-76284364D01*
X123634700Y-76157364D02*
G75*
G02*
X123253700Y-76157364I-190500J0D01*
G01*
X123634700Y-76157364D02*
X123634700Y-75458864D01*
D10*
X124015700Y-75649364D02*
X124015700Y-76157364D01*
X123761700Y-76157364D02*
X123761700Y-75649364D01*
X124079200Y-75204864D02*
X124333200Y-75458864D01*
X124079200Y-75077864D02*
X124079200Y-75839864D01*
X124015700Y-76157364D02*
G75*
G02*
X123761700Y-76157364I-127000J0D01*
G01*
X123761700Y-75649364D02*
G75*
G02*
X124015700Y-75649364I127000J0D01*
G01*
X124079200Y-75395364D02*
X124333200Y-75649364D01*
D11*
X113157380Y-78190295D02*
X113157380Y-78990295D01*
X113424047Y-78418866D01*
X113690714Y-78990295D01*
X113690714Y-78190295D01*
X114224047Y-78990295D02*
X114376428Y-78990295D01*
X114452619Y-78952200D01*
X114528809Y-78876009D01*
X114566904Y-78723628D01*
X114566904Y-78456961D01*
X114528809Y-78304580D01*
X114452619Y-78228390D01*
X114376428Y-78190295D01*
X114224047Y-78190295D01*
X114147857Y-78228390D01*
X114071666Y-78304580D01*
X114033571Y-78456961D01*
X114033571Y-78723628D01*
X114071666Y-78876009D01*
X114147857Y-78952200D01*
X114224047Y-78990295D01*
X114909761Y-78190295D02*
X114909761Y-78990295D01*
X115100238Y-78990295D01*
X115214523Y-78952200D01*
X115290714Y-78876009D01*
X115328809Y-78799819D01*
X115366904Y-78647438D01*
X115366904Y-78533152D01*
X115328809Y-78380771D01*
X115290714Y-78304580D01*
X115214523Y-78228390D01*
X115100238Y-78190295D01*
X114909761Y-78190295D01*
X115709761Y-78609342D02*
X115976428Y-78609342D01*
X116090714Y-78190295D02*
X115709761Y-78190295D01*
X115709761Y-78990295D01*
X116090714Y-78990295D01*
X136760228Y-75929695D02*
X136760228Y-76729695D01*
X136760228Y-76348742D02*
X137217371Y-76348742D01*
X137217371Y-75929695D02*
X137217371Y-76729695D01*
X137598323Y-75929695D02*
X137598323Y-76729695D01*
X137903085Y-76729695D01*
X137979276Y-76691600D01*
X138017371Y-76653504D01*
X138055466Y-76577314D01*
X138055466Y-76463028D01*
X138017371Y-76386838D01*
X137979276Y-76348742D01*
X137903085Y-76310647D01*
X137598323Y-76310647D01*
D12*
X117556991Y-72824751D02*
X117556991Y-73191418D01*
X117523658Y-73258084D01*
X117456991Y-73291418D01*
X117323658Y-73291418D01*
X117256991Y-73258084D01*
X117556991Y-72858084D02*
X117490324Y-72824751D01*
X117323658Y-72824751D01*
X117256991Y-72858084D01*
X117223658Y-72924751D01*
X117223658Y-72991418D01*
X117256991Y-73058084D01*
X117323658Y-73091418D01*
X117490324Y-73091418D01*
X117556991Y-73124751D01*
X117856991Y-72858084D02*
X117923658Y-72824751D01*
X118056991Y-72824751D01*
X118123658Y-72858084D01*
X118156991Y-72924751D01*
X118156991Y-72958084D01*
X118123658Y-73024751D01*
X118056991Y-73058084D01*
X117956991Y-73058084D01*
X117890324Y-73091418D01*
X117856991Y-73158084D01*
X117856991Y-73191418D01*
X117890324Y-73258084D01*
X117956991Y-73291418D01*
X118056991Y-73291418D01*
X118123658Y-73258084D01*
X118390324Y-73291418D02*
X118556991Y-72824751D01*
X118723658Y-73291418D02*
X118556991Y-72824751D01*
X118490324Y-72658084D01*
X118456991Y-72624751D01*
X118390324Y-72591418D01*
X118990324Y-73291418D02*
X118990324Y-72824751D01*
X118990324Y-73224751D02*
X119023658Y-73258084D01*
X119090324Y-73291418D01*
X119190324Y-73291418D01*
X119256991Y-73258084D01*
X119290324Y-73191418D01*
X119290324Y-72824751D01*
X119923658Y-72858084D02*
X119856991Y-72824751D01*
X119723658Y-72824751D01*
X119656991Y-72858084D01*
X119623658Y-72891418D01*
X119590324Y-72958084D01*
X119590324Y-73158084D01*
X119623658Y-73224751D01*
X119656991Y-73258084D01*
X119723658Y-73291418D01*
X119856991Y-73291418D01*
X119923658Y-73258084D01*
D11*
X117246677Y-74341513D02*
X117246677Y-73693894D01*
X117284772Y-73617703D01*
X117322867Y-73579608D01*
X117399058Y-73541513D01*
X117551438Y-73541513D01*
X117627629Y-73579608D01*
X117665724Y-73617703D01*
X117703819Y-73693894D01*
X117703819Y-74341513D01*
X118046677Y-73770084D02*
X118427629Y-73770084D01*
X117970486Y-73541513D02*
X118237153Y-74341513D01*
X118503819Y-73541513D01*
X119227629Y-73617703D02*
X119189534Y-73579608D01*
X119075248Y-73541513D01*
X118999058Y-73541513D01*
X118884772Y-73579608D01*
X118808581Y-73655798D01*
X118770486Y-73731989D01*
X118732391Y-73884370D01*
X118732391Y-73998656D01*
X118770486Y-74151037D01*
X118808581Y-74227227D01*
X118884772Y-74303418D01*
X118999058Y-74341513D01*
X119075248Y-74341513D01*
X119189534Y-74303418D01*
X119227629Y-74265322D01*
X119989534Y-73541513D02*
X119532391Y-73541513D01*
X119760962Y-73541513D02*
X119760962Y-74341513D01*
X119684772Y-74227227D01*
X119608581Y-74151037D01*
X119532391Y-74112941D01*
X133042457Y-72827742D02*
X133042457Y-73627742D01*
X133042457Y-73399171D02*
X133099600Y-73513457D01*
X133156742Y-73570600D01*
X133271028Y-73627742D01*
X133385314Y-73627742D01*
X134242457Y-72884885D02*
X134128171Y-72827742D01*
X133899600Y-72827742D01*
X133785314Y-72884885D01*
X133728171Y-72999171D01*
X133728171Y-73456314D01*
X133785314Y-73570600D01*
X133899600Y-73627742D01*
X134128171Y-73627742D01*
X134242457Y-73570600D01*
X134299600Y-73456314D01*
X134299600Y-73342028D01*
X133728171Y-73227742D01*
X134699600Y-73627742D02*
X134985314Y-72827742D01*
X135271028Y-73627742D01*
X135728171Y-72942028D02*
X135785314Y-72884885D01*
X135728171Y-72827742D01*
X135671028Y-72884885D01*
X135728171Y-72942028D01*
X135728171Y-72827742D01*
X136242457Y-73170600D02*
X136813885Y-73170600D01*
X136128171Y-72827742D02*
X136528171Y-74027742D01*
X136928171Y-72827742D01*
D13*
X121304571Y-74174628D02*
X121304571Y-72674628D01*
X122018857Y-73388914D02*
X122090285Y-73246057D01*
X122233142Y-73174628D01*
X121304571Y-73388914D02*
X121376000Y-73246057D01*
X121518857Y-73174628D01*
X121804571Y-73174628D01*
X121947428Y-73246057D01*
X122018857Y-73388914D01*
X122018857Y-74174628D01*
X122876000Y-73174628D02*
X122876000Y-74674628D01*
X123233142Y-74674628D01*
X123447428Y-74603200D01*
X123590285Y-74460342D01*
X123661714Y-74317485D01*
X123733142Y-74031771D01*
X123733142Y-73817485D01*
X123661714Y-73531771D01*
X123590285Y-73388914D01*
X123447428Y-73246057D01*
X123233142Y-73174628D01*
X122876000Y-73174628D01*
X124304571Y-73603200D02*
X125018857Y-73603200D01*
X124161714Y-73174628D02*
X124661714Y-74674628D01*
X125161714Y-73174628D01*
X126518857Y-73317485D02*
X126447428Y-73246057D01*
X126233142Y-73174628D01*
X126090285Y-73174628D01*
X125876000Y-73246057D01*
X125733142Y-73388914D01*
X125661714Y-73531771D01*
X125590285Y-73817485D01*
X125590285Y-74031771D01*
X125661714Y-74317485D01*
X125733142Y-74460342D01*
X125876000Y-74603200D01*
X126090285Y-74674628D01*
X126233142Y-74674628D01*
X126447428Y-74603200D01*
X126518857Y-74531771D01*
D14*
X138000000Y-88000000D02*
G75*
G03*
X139000000Y-87000000I0J1000000D01*
G01*
X139000000Y-73000000D02*
G75*
G03*
X138000000Y-72000000I-1000000J0D01*
G01*
X100000000Y-87000000D02*
G75*
G03*
X101000000Y-88000000I1000000J0D01*
G01*
X101000000Y-72000000D02*
G75*
G03*
X100000000Y-73000000I0J-1000000D01*
G01*
X100000000Y-87000000D02*
X100000000Y-80000000D01*
X138000000Y-88000000D02*
X101000000Y-88000000D01*
X139000000Y-73000000D02*
X139000000Y-87000000D01*
X101000000Y-72000000D02*
X138000000Y-72000000D01*
X100000000Y-80000000D02*
X100000000Y-73000000D01*
D15*
%TO.C,X2*%
X128900000Y-83000000D02*
X135300000Y-83000000D01*
X139000000Y-82500000D02*
X140975000Y-82500000D01*
X139000000Y-77500000D02*
X141000000Y-77500000D01*
X141000000Y-77500000D02*
X141000000Y-82500000D01*
X139000000Y-82500000D02*
X139000000Y-83000000D01*
X139000000Y-77000000D02*
X139000000Y-77500000D01*
X124500000Y-83000000D02*
X124500000Y-77000000D01*
X139000000Y-77000000D02*
X136000000Y-77000000D01*
X133400000Y-77000000D02*
X124500000Y-77000000D01*
X125700000Y-83000000D02*
X124500000Y-83000000D01*
X137900000Y-83000000D02*
X139000000Y-83000000D01*
%TO.C,C37*%
X134636000Y-85430000D02*
X134636000Y-84730000D01*
X133436000Y-84730000D02*
X133436000Y-85430000D01*
%TO.C,C36*%
X117434000Y-76094000D02*
X117434000Y-76794000D01*
X118634000Y-76794000D02*
X118634000Y-76094000D01*
%TO.C,C28*%
X132731000Y-74762000D02*
X132731000Y-74062000D01*
X131531000Y-74062000D02*
X131531000Y-74762000D01*
%TO.C,C18*%
X124889778Y-85245624D02*
X124889778Y-84545624D01*
X123689778Y-84545624D02*
X123689778Y-85245624D01*
%TO.C,C13*%
X119497600Y-85722800D02*
X119497600Y-85022800D01*
X118297600Y-85022800D02*
X118297600Y-85722800D01*
%TO.C,C9*%
X112669000Y-81749500D02*
X111969000Y-81749500D01*
X111969000Y-82949500D02*
X112669000Y-82949500D01*
%TO.C,C8*%
X115590000Y-81749500D02*
X114890000Y-81749500D01*
X114890000Y-82949500D02*
X115590000Y-82949500D01*
%TO.C,C6*%
X106696000Y-74635000D02*
X106696000Y-73935000D01*
X105496000Y-73935000D02*
X105496000Y-74635000D01*
%TO.C,C4*%
X107883600Y-78773000D02*
X107883600Y-79473000D01*
X109083600Y-79473000D02*
X109083600Y-78773000D01*
%TO.C,X1*%
X100000000Y-74000000D02*
X100000000Y-86000000D01*
X103750000Y-86000000D02*
X84950000Y-86000000D01*
X103750000Y-74000000D02*
X84950000Y-74000000D01*
X84950000Y-74000000D02*
X84950000Y-86000000D01*
X99750000Y-74000000D02*
X99750000Y-86000000D01*
X103750000Y-86000000D02*
X103750000Y-74000000D01*
%TO.C,U11*%
X131719000Y-86376000D02*
X131019000Y-86376000D01*
X131019000Y-83276000D02*
X131719000Y-83276000D01*
X131019000Y-86376000D02*
X131019000Y-83276000D01*
X131719000Y-86376000D02*
X131719000Y-83276000D01*
X131069000Y-86376000D02*
X131169000Y-86376000D01*
X131169000Y-86376000D02*
X131019000Y-86226000D01*
X131019000Y-86226000D02*
X131019000Y-86126000D01*
X131019000Y-86126000D02*
X131269000Y-86376000D01*
X131269000Y-86376000D02*
X131369000Y-86376000D01*
X131369000Y-86376000D02*
X131419000Y-86376000D01*
X131419000Y-86376000D02*
X131019000Y-85976000D01*
%TO.C,U10*%
X120351000Y-74513000D02*
X121051000Y-74513000D01*
X121051000Y-77613000D02*
X120351000Y-77613000D01*
X121051000Y-74513000D02*
X121051000Y-77613000D01*
X120351000Y-74513000D02*
X120351000Y-77613000D01*
X121001000Y-74513000D02*
X120901000Y-74513000D01*
X120901000Y-74513000D02*
X121051000Y-74663000D01*
X121051000Y-74663000D02*
X121051000Y-74763000D01*
X121051000Y-74763000D02*
X120801000Y-74513000D01*
X120801000Y-74513000D02*
X120701000Y-74513000D01*
X120701000Y-74513000D02*
X120651000Y-74513000D01*
X120651000Y-74513000D02*
X121051000Y-74913000D01*
%TO.C,U8*%
X129941000Y-76343000D02*
X129241000Y-76343000D01*
X129241000Y-73243000D02*
X129941000Y-73243000D01*
X129241000Y-76343000D02*
X129241000Y-73243000D01*
X129941000Y-76343000D02*
X129941000Y-73243000D01*
X129291000Y-76343000D02*
X129391000Y-76343000D01*
X129391000Y-76343000D02*
X129241000Y-76193000D01*
X129241000Y-76193000D02*
X129241000Y-76093000D01*
X129241000Y-76093000D02*
X129491000Y-76343000D01*
X129491000Y-76343000D02*
X129591000Y-76343000D01*
X129591000Y-76343000D02*
X129641000Y-76343000D01*
X129641000Y-76343000D02*
X129241000Y-75943000D01*
%TO.C,U7*%
X122099778Y-86630000D02*
X121399778Y-86630000D01*
X121399778Y-83530000D02*
X122099778Y-83530000D01*
X121399778Y-86630000D02*
X121399778Y-83530000D01*
X122099778Y-86630000D02*
X122099778Y-83530000D01*
X121449778Y-86630000D02*
X121549778Y-86630000D01*
X121549778Y-86630000D02*
X121399778Y-86480000D01*
X121399778Y-86480000D02*
X121399778Y-86380000D01*
X121399778Y-86380000D02*
X121649778Y-86630000D01*
X121649778Y-86630000D02*
X121749778Y-86630000D01*
X121749778Y-86630000D02*
X121799778Y-86630000D01*
X121799778Y-86630000D02*
X121399778Y-86230000D01*
%TO.C,U2*%
X114250000Y-84603000D02*
X114250000Y-85303000D01*
X111150000Y-85303000D02*
X111150000Y-84603000D01*
X114250000Y-85303000D02*
X111150000Y-85303000D01*
X114250000Y-84603000D02*
X111150000Y-84603000D01*
X114250000Y-85253000D02*
X114250000Y-85153000D01*
X114250000Y-85153000D02*
X114100000Y-85303000D01*
X114100000Y-85303000D02*
X114000000Y-85303000D01*
X114000000Y-85303000D02*
X114250000Y-85053000D01*
X114250000Y-85053000D02*
X114250000Y-84953000D01*
X114250000Y-84953000D02*
X114250000Y-84903000D01*
X114250000Y-84903000D02*
X113850000Y-85303000D01*
%TO.C,U1*%
X117806000Y-84603000D02*
X117806000Y-85303000D01*
X114706000Y-85303000D02*
X114706000Y-84603000D01*
X117806000Y-85303000D02*
X114706000Y-85303000D01*
X117806000Y-84603000D02*
X114706000Y-84603000D01*
X117806000Y-85253000D02*
X117806000Y-85153000D01*
X117806000Y-85153000D02*
X117656000Y-85303000D01*
X117656000Y-85303000D02*
X117556000Y-85303000D01*
X117556000Y-85303000D02*
X117806000Y-85053000D01*
X117806000Y-85053000D02*
X117806000Y-84953000D01*
X117806000Y-84953000D02*
X117806000Y-84903000D01*
X117806000Y-84903000D02*
X117406000Y-85303000D01*
%TO.C,SW1*%
X122500000Y-81850000D02*
X116500000Y-81850000D01*
X116500000Y-78150000D02*
X122500000Y-78150000D01*
X122500000Y-78150000D02*
X122500000Y-78800000D01*
X122500000Y-81200000D02*
X122500000Y-81850000D01*
X116500000Y-81850000D02*
X116500000Y-81200000D01*
X116500000Y-78150000D02*
X116500000Y-78800000D01*
%TO.C,R9*%
X111298300Y-79295700D02*
X112298300Y-79295700D01*
X112298300Y-77935700D02*
X111298300Y-77935700D01*
%TO.C,R6*%
X121124800Y-82012400D02*
X120124800Y-82012400D01*
X120124800Y-83372400D02*
X121124800Y-83372400D01*
%TO.C,R2*%
X123614000Y-82012400D02*
X122614000Y-82012400D01*
X122614000Y-83372400D02*
X123614000Y-83372400D01*
D12*
%TO.C,L2*%
X111325000Y-72862800D02*
X107725000Y-72862800D01*
X111325000Y-76062800D02*
X107725000Y-76062800D01*
X107725000Y-72862800D02*
X107725000Y-76062800D01*
X111325000Y-72862800D02*
X111325000Y-76062800D01*
%TO.C,L1*%
X110156600Y-81371800D02*
X106556600Y-81371800D01*
X110156600Y-84571800D02*
X106556600Y-84571800D01*
X106556600Y-81371800D02*
X106556600Y-84571800D01*
X110156600Y-81371800D02*
X110156600Y-84571800D01*
D15*
%TO.C,D2*%
X114635000Y-79500000D02*
X112035000Y-79500000D01*
X114635000Y-80500000D02*
X112035000Y-80500000D01*
X114635000Y-79500000D02*
X114635000Y-80500000D01*
X112035000Y-79500000D02*
X112035000Y-80500000D01*
X113035000Y-79500000D02*
X113035000Y-80500000D01*
%TO.C,C21*%
X113618400Y-74174000D02*
X113618400Y-76174000D01*
X111578400Y-76174000D02*
X111578400Y-74174000D01*
%TO.C,C20*%
X116006000Y-74174000D02*
X116006000Y-76174000D01*
X113966000Y-76174000D02*
X113966000Y-74174000D01*
%TO.C,C7*%
X109547100Y-87014400D02*
X107547100Y-87014400D01*
X107547100Y-84974400D02*
X109547100Y-84974400D01*
%TD*%
M02*
