(module footprints:MOLEX-48037-1000-USB (layer F.Cu) (tedit 5B22D19A)
  (descr "USB A connector female THT")
  (tags "USB USB_A_female THT")
  (zone_connect 2)
  (fp_text reference X1 (at 3.302 6.56) (layer F.SilkS)
    (effects (font (size 1 1) (thickness 0.15)))
  )
  (fp_text value USB_A (at 0.1 10.34) (layer F.Fab)
    (effects (font (size 1 1) (thickness 0.15)))
  )
  (fp_line (start 6 2.75) (end -6 2.75) (layer F.SilkS) (width 0.12))
  (fp_line (start -6 -1) (end -6 17.8) (layer F.SilkS) (width 0.12))
  (fp_line (start 6 -1) (end 6 17.8) (layer F.SilkS) (width 0.12))
  (fp_line (start 6 17.8) (end -6 17.8) (layer F.SilkS) (width 0.12))
  (fp_line (start 6 3) (end -6 3) (layer F.SilkS) (width 0.12))
  (fp_line (start -6.1 -2.6) (end 6.1 -2.6) (layer F.CrtYd) (width 0.05))
  (fp_line (start -6.1 17.9) (end 6.1 17.9) (layer F.CrtYd) (width 0.05))
  (fp_line (start 6.1 -2.6) (end 6.1 17.9) (layer F.CrtYd) (width 0.05))
  (fp_line (start -6.1 17.9) (end -6.1 -2.6) (layer F.CrtYd) (width 0.05))
  (fp_line (start -6 -1) (end 6 -1) (layer F.SilkS) (width 0.12))
  (pad 5 thru_hole oval (at -5.7 0) (size 2.5 4) (drill oval 1.2 2.5) (layers *.Cu *.Mask)
    (zone_connect 2))
  (pad "" thru_hole circle (at -2.25 0 270) (size 1.1 1.1) (drill 1.1) (layers *.Cu *.Mask)
    (zone_connect 2))
  (pad "" thru_hole circle (at 2.25 0 270) (size 1.1 1.1) (drill 1.1) (layers *.Cu *.Mask)
    (zone_connect 2))
  (pad "" thru_hole oval (at 5.7 0) (size 2.5 4) (drill oval 1.2 2.5) (layers *.Cu *.Mask)
    (zone_connect 2))
  (pad 1 smd rect (at 3.5 -2.6) (size 1.2 2) (layers F.Cu F.Paste F.Mask)
    (zone_connect 2))
  (pad 2 smd rect (at 1 -2.6) (size 1.2 2) (layers F.Cu F.Paste F.Mask)
    (zone_connect 2))
  (pad 3 smd rect (at -1 -2.6) (size 1.2 2) (layers F.Cu F.Paste F.Mask)
    (zone_connect 2))
  (pad 4 smd rect (at -3.5 -2.6) (size 1.2 2) (layers F.Cu F.Paste F.Mask)
    (zone_connect 2))
)
